DEBUG 2015-12-11T19:08:57.092 src/modbusmaster.cpp @ 182 waiter unlock 
DEBUG 2015-12-11T19:08:57.092 src/modbusmaster.cpp @ 184 rdata locked 
DEBUG 2015-12-11T19:08:57.092 src/modbusmaster.cpp @ 188 rdata unlocked 
DEBUG 2015-12-11T19:08:57.092 src/modbusmaster.cpp @ 191 thread wakeup 
DEBUG 2015-12-11T19:08:57.092 src/modbusmaster.cpp @ 179 read 
DEBUG 2015-12-11T19:08:57.092 src/modbusmaster.cpp @ 182 waiter unlock 
DEBUG 2015-12-11T19:08:57.092 src/modbusmaster.cpp @ 184 rdata locked 
DEBUG 2015-12-11T19:08:57.092 src/modbusmaster.cpp @ 188 rdata unlocked 
DEBUG 2015-12-11T19:08:57.092 src/modbusmaster.cpp @ 191 thread wakeup 
DEBUG 2015-12-11T19:08:57.092 src/pagewidget.cpp @ 208 End Get periodical parameters ------- 
DEBUG 2015-12-11T19:08:57.100 src/modbusmaster.cpp @ 327 Set slave 51 
 INFO 2015-12-11T19:08:57.100 src/modbusmaster.cpp @ 219 Tx Data :  "33  03  00  18  00  08  c0  19  " 
 INFO 2015-12-11T19:08:57.141 src/modbusmaster.cpp @ 231 Rx Data :  "33  03  10  00  25  00  00  dc  a1  1d  fd  04  00  00  00  00  00  00  00  2e  a6  " 
DEBUG 2015-12-11T19:08:57.151 src/usodevice.cpp @ 406 Read parameter slot known slave  
DEBUG 2015-12-11T19:08:57.152 src/usodevice.cpp @ 409 Read parameter slot, known address  "0x30" 
DEBUG 2015-12-11T19:08:57.161 src/modbusmaster.cpp @ 327 Set slave 51 
 INFO 2015-12-11T19:08:57.162 src/modbusmaster.cpp @ 219 Tx Data :  "33  03  0b  5c  00  0a  03  e9  " 
 INFO 2015-12-11T19:08:57.208 src/modbusmaster.cpp @ 231 Rx Data :  "33  03  14  00  02  04  00  20  00  00  00  00  16  00  00  02  00  00  00  00  00  00  00  87  cb  " 
DEBUG 2015-12-11T19:08:57.218 src/usodevice.cpp @ 406 Read parameter slot known slave  
DEBUG 2015-12-11T19:08:57.218 src/usodevice.cpp @ 409 Read parameter slot, known address  "0x16b8" 
DEBUG 2015-12-11T19:08:57.228 src/modbusmaster.cpp @ 327 Set slave 51 
 INFO 2015-12-11T19:08:57.228 src/modbusmaster.cpp @ 219 Tx Data :  "33  03  01  26  00  08  a0  29  " 
 INFO 2015-12-11T19:08:57.275 src/modbusmaster.cpp @ 231 Rx Data :  "33  03  10  00  00  00  00  00  00  00  00  00  00  00  00  00  00  00  00  d2  e5  " 
DEBUG 2015-12-11T19:08:57.285 src/usodevice.cpp @ 406 Read parameter slot known slave  
DEBUG 2015-12-11T19:08:57.285 src/usodevice.cpp @ 409 Read parameter slot, known address  "0x24c" 
DEBUG 2015-12-11T19:08:57.285 src/usodevice.cpp @ 422 Sensor updte flags emit 
DEBUG 2015-12-11T19:08:57.285 src/pagewidget.cpp @ 180 Update sensor flags 
DEBUG 2015-12-11T19:08:57.285 src/pagewidget.cpp @ 185 Sensor flags  0   0   0   0 
DEBUG 2015-12-11T19:08:57.285 src/usodevice.cpp @ 330 Set command 3492 
DEBUG 2015-12-11T19:08:57.285 src/parameters/modbusparameter.cpp @ 334 Set value "0100" 
DEBUG 2015-12-11T19:08:57.285 src/modbusmaster.cpp @ 160 writedw 
DEBUG 2015-12-11T19:08:57.285 src/modbusmaster.cpp @ 143 w_waiter unlock 
DEBUG 2015-12-11T19:08:57.285 src/modbusmaster.cpp @ 145 wdata locked 
DEBUG 2015-12-11T19:08:57.285 src/modbusmaster.cpp @ 149 wdata unlocked 
DEBUG 2015-12-11T19:08:57.285 src/modbusmaster.cpp @ 152 thread wakeup 
 INFO 2015-12-11T19:08:57.295 src/modbusmaster.cpp @ 219 Tx Data :  "33  10  0d  a4  00  01  02  00  01  ef  15  " 
 INFO 2015-12-11T19:08:57.320 src/modbusmaster.cpp @ 231 Rx Data :  "33  10  0d  a4  00  01  46  94  " 
DEBUG 2015-12-11T19:08:58.091 src/pagewidget.cpp @ 203 Start Get periodical parameters ------- 
DEBUG 2015-12-11T19:08:58.091 src/modbusmaster.cpp @ 179 read 
DEBUG 2015-12-11T19:08:58.092 src/modbusmaster.cpp @ 182 waiter unlock 
DEBUG 2015-12-11T19:08:58.092 src/modbusmaster.cpp @ 184 rdata locked 
DEBUG 2015-12-11T19:08:58.092 src/modbusmaster.cpp @ 188 rdata unlocked 
DEBUG 2015-12-11T19:08:58.092 src/modbusmaster.cpp @ 191 thread wakeup 
DEBUG 2015-12-11T19:08:58.092 src/modbusmaster.cpp @ 179 read 
DEBUG 2015-12-11T19:08:58.092 src/modbusmaster.cpp @ 182 waiter unlock 
DEBUG 2015-12-11T19:08:58.092 src/modbusmaster.cpp @ 184 rdata locked 
DEBUG 2015-12-11T19:08:58.092 src/modbusmaster.cpp @ 188 rdata unlocked 
DEBUG 2015-12-11T19:08:58.092 src/modbusmaster.cpp @ 191 thread wakeup 
DEBUG 2015-12-11T19:08:58.092 src/modbusmaster.cpp @ 179 read 
DEBUG 2015-12-11T19:08:58.092 src/modbusmaster.cpp @ 182 waiter unlock 
DEBUG 2015-12-11T19:08:58.092 src/modbusmaster.cpp @ 184 rdata locked 
DEBUG 2015-12-11T19:08:58.092 src/modbusmaster.cpp @ 188 rdata unlocked 
DEBUG 2015-12-11T19:08:58.092 src/modbusmaster.cpp @ 191 thread wakeup 
DEBUG 2015-12-11T19:08:58.092 src/pagewidget.cpp @ 208 End Get periodical parameters ------- 
DEBUG 2015-12-11T19:08:58.096 src/modbusmaster.cpp @ 327 Set slave 51 
 INFO 2015-12-11T19:08:58.096 src/modbusmaster.cpp @ 219 Tx Data :  "33  03  00  18  00  08  c0  19  " 
 INFO 2015-12-11T19:08:58.137 src/modbusmaster.cpp @ 231 Rx Data :  "33  03  10  00  21  00  00  dc  a2  1d  fd  04  00  00  00  00  00  00  00  25  e1  " 
DEBUG 2015-12-11T19:08:58.147 src/usodevice.cpp @ 406 Read parameter slot known slave  
DEBUG 2015-12-11T19:08:58.148 src/usodevice.cpp @ 409 Read parameter slot, known address  "0x30" 
DEBUG 2015-12-11T19:08:58.158 src/modbusmaster.cpp @ 327 Set slave 51 
 INFO 2015-12-11T19:08:58.158 src/modbusmaster.cpp @ 219 Tx Data :  "33  03  0b  5c  00  0a  03  e9  " 
 INFO 2015-12-11T19:08:58.204 src/modbusmaster.cpp @ 231 Rx Data :  "33  03  14  00  02  04  00  20  00  00  00  00  16  00  00  02  00  00  00  00  00  00  00  87  cb  " 
DEBUG 2015-12-11T19:08:58.214 src/usodevice.cpp @ 406 Read parameter slot known slave  
DEBUG 2015-12-11T19:08:58.214 src/usodevice.cpp @ 409 Read parameter slot, known address  "0x16b8" 
DEBUG 2015-12-11T19:08:58.224 src/modbusmaster.cpp @ 327 Set slave 51 
 INFO 2015-12-11T19:08:58.225 src/modbusmaster.cpp @ 219 Tx Data :  "33  03  01  26  00  08  a0  29  " 
 INFO 2015-12-11T19:08:58.271 src/modbusmaster.cpp @ 231 Rx Data :  "33  03  10  00  00  00  00  00  00  00  00  00  00  00  00  00  00  00  00  d2  e5  " 
DEBUG 2015-12-11T19:08:58.281 src/usodevice.cpp @ 406 Read parameter slot known slave  
DEBUG 2015-12-11T19:08:58.281 src/usodevice.cpp @ 409 Read parameter slot, known address  "0x24c" 
DEBUG 2015-12-11T19:08:58.281 src/usodevice.cpp @ 422 Sensor updte flags emit 
DEBUG 2015-12-11T19:08:58.281 src/pagewidget.cpp @ 180 Update sensor flags 
DEBUG 2015-12-11T19:08:58.281 src/pagewidget.cpp @ 185 Sensor flags  0   0   0   0 
DEBUG 2015-12-11T19:08:58.281 src/usodevice.cpp @ 330 Set command 3492 
DEBUG 2015-12-11T19:08:58.281 src/parameters/modbusparameter.cpp @ 334 Set value "0100" 
DEBUG 2015-12-11T19:08:58.281 src/modbusmaster.cpp @ 160 writedw 
DEBUG 2015-12-11T19:08:58.281 src/modbusmaster.cpp @ 143 w_waiter unlock 
DEBUG 2015-12-11T19:08:58.281 src/modbusmaster.cpp @ 145 wdata locked 
DEBUG 2015-12-11T19:08:58.281 src/modbusmaster.cpp @ 149 wdata unlocked 
DEBUG 2015-12-11T19:08:58.281 src/modbusmaster.cpp @ 152 thread wakeup 
 INFO 2015-12-11T19:08:58.291 src/modbusmaster.cpp @ 219 Tx Data :  "33  10  0d  a4  00  01  02  00  01  ef  15  " 
 INFO 2015-12-11T19:08:58.316 src/modbusmaster.cpp @ 231 Rx Data :  "33  10  0d  a4  00  01  46  94  " 
DEBUG 2015-12-11T19:08:59.090 src/pagewidget.cpp @ 203 Start Get periodical parameters ------- 
DEBUG 2015-12-11T19:08:59.090 src/modbusmaster.cpp @ 179 read 
DEBUG 2015-12-11T19:08:59.090 src/modbusmaster.cpp @ 182 waiter unlock 
DEBUG 2015-12-11T19:08:59.090 src/modbusmaster.cpp @ 184 rdata locked 
DEBUG 2015-12-11T19:08:59.091 src/modbusmaster.cpp @ 188 rdata unlocked 
DEBUG 2015-12-11T19:08:59.091 src/modbusmaster.cpp @ 191 thread wakeup 
DEBUG 2015-12-11T19:08:59.091 src/modbusmaster.cpp @ 179 read 
DEBUG 2015-12-11T19:08:59.091 src/modbusmaster.cpp @ 182 waiter unlock 
DEBUG 2015-12-11T19:08:59.091 src/modbusmaster.cpp @ 184 rdata locked 
DEBUG 2015-12-11T19:08:59.091 src/modbusmaster.cpp @ 188 rdata unlocked 
DEBUG 2015-12-11T19:08:59.091 src/modbusmaster.cpp @ 191 thread wakeup 
DEBUG 2015-12-11T19:08:59.091 src/modbusmaster.cpp @ 179 read 
DEBUG 2015-12-11T19:08:59.091 src/modbusmaster.cpp @ 182 waiter unlock 
DEBUG 2015-12-11T19:08:59.091 src/modbusmaster.cpp @ 184 rdata locked 
DEBUG 2015-12-11T19:08:59.091 src/modbusmaster.cpp @ 188 rdata unlocked 
DEBUG 2015-12-11T19:08:59.091 src/modbusmaster.cpp @ 191 thread wakeup 
DEBUG 2015-12-11T19:08:59.091 src/pagewidget.cpp @ 208 End Get periodical parameters ------- 
DEBUG 2015-12-11T19:08:59.092 src/modbusmaster.cpp @ 327 Set slave 51 
 INFO 2015-12-11T19:08:59.092 src/modbusmaster.cpp @ 219 Tx Data :  "33  03  00  18  00  08  c0  19  " 
 INFO 2015-12-11T19:08:59.133 src/modbusmaster.cpp @ 231 Rx Data :  "33  03  10  00  1d  00  00  dc  a3  1d  fd  04  00  00  00  00  00  00  00  1d  0c  " 
DEBUG 2015-12-11T19:08:59.144 src/usodevice.cpp @ 406 Read parameter slot known slave  
DEBUG 2015-12-11T19:08:59.144 src/usodevice.cpp @ 409 Read parameter slot, known address  "0x30" 
DEBUG 2015-12-11T19:08:59.154 src/modbusmaster.cpp @ 327 Set slave 51 
 INFO 2015-12-11T19:08:59.154 src/modbusmaster.cpp @ 219 Tx Data :  "33  03  0b  5c  00  0a  03  e9  " 
 INFO 2015-12-11T19:08:59.200 src/modbusmaster.cpp @ 231 Rx Data :  "33  03  14  00  02  04  00  20  00  00  00  00  16  00  00  02  00  00  00  00  00  00  00  87  cb  " 
DEBUG 2015-12-11T19:08:59.210 src/usodevice.cpp @ 406 Read parameter slot known slave  
DEBUG 2015-12-11T19:08:59.211 src/usodevice.cpp @ 409 Read parameter slot, known address  "0x16b8" 
DEBUG 2015-12-11T19:08:59.220 src/modbusmaster.cpp @ 327 Set slave 51 
 INFO 2015-12-11T19:08:59.221 src/modbusmaster.cpp @ 219 Tx Data :  "33  03  01  26  00  08  a0  29  " 
 INFO 2015-12-11T19:08:59.267 src/modbusmaster.cpp @ 231 Rx Data :  "33  03  10  00  00  00  00  00  00  00  00  00  00  00  00  00  00  00  00  d2  e5  " 
DEBUG 2015-12-11T19:08:59.277 src/usodevice.cpp @ 406 Read parameter slot known slave  
DEBUG 2015-12-11T19:08:59.277 src/usodevice.cpp @ 409 Read parameter slot, known address  "0x24c" 
DEBUG 2015-12-11T19:08:59.277 src/usodevice.cpp @ 422 Sensor updte flags emit 
DEBUG 2015-12-11T19:08:59.277 src/pagewidget.cpp @ 180 Update sensor flags 
DEBUG 2015-12-11T19:08:59.277 src/pagewidget.cpp @ 185 Sensor flags  0   0   0   0 
DEBUG 2015-12-11T19:08:59.277 src/usodevice.cpp @ 330 Set command 3492 
DEBUG 2015-12-11T19:08:59.277 src/parameters/modbusparameter.cpp @ 334 Set value "0100" 
DEBUG 2015-12-11T19:08:59.277 src/modbusmaster.cpp @ 160 writedw 
DEBUG 2015-12-11T19:08:59.277 src/modbusmaster.cpp @ 143 w_waiter unlock 
DEBUG 2015-12-11T19:08:59.277 src/modbusmaster.cpp @ 145 wdata locked 
DEBUG 2015-12-11T19:08:59.277 src/modbusmaster.cpp @ 149 wdata unlocked 
DEBUG 2015-12-11T19:08:59.277 src/modbusmaster.cpp @ 152 thread wakeup 
 INFO 2015-12-11T19:08:59.287 src/modbusmaster.cpp @ 219 Tx Data :  "33  10  0d  a4  00  01  02  00  01  ef  15  " 
 INFO 2015-12-11T19:08:59.312 src/modbusmaster.cpp @ 231 Rx Data :  "33  10  0d  a4  00  01  46  94  " 
DEBUG 2015-12-11T19:09:00.091 src/pagewidget.cpp @ 203 Start Get periodical parameters ------- 
DEBUG 2015-12-11T19:09:00.091 src/modbusmaster.cpp @ 179 read 
DEBUG 2015-12-11T19:09:00.091 src/modbusmaster.cpp @ 182 waiter unlock 
DEBUG 2015-12-11T19:09:00.091 src/modbusmaster.cpp @ 184 rdata locked 
DEBUG 2015-12-11T19:09:00.092 src/modbusmaster.cpp @ 188 rdata unlocked 
DEBUG 2015-12-11T19:09:00.092 src/modbusmaster.cpp @ 191 thread wakeup 
DEBUG 2015-12-11T19:09:00.092 src/modbusmaster.cpp @ 179 read 
DEBUG 2015-12-11T19:09:00.092 src/modbusmaster.cpp @ 182 waiter unlock 
DEBUG 2015-12-11T19:09:00.092 src/modbusmaster.cpp @ 184 rdata locked 
DEBUG 2015-12-11T19:09:00.092 src/modbusmaster.cpp @ 188 rdata unlocked 
DEBUG 2015-12-11T19:09:00.092 src/modbusmaster.cpp @ 191 thread wakeup 
DEBUG 2015-12-11T19:09:00.092 src/modbusmaster.cpp @ 179 read 
DEBUG 2015-12-11T19:09:00.092 src/modbusmaster.cpp @ 182 waiter unlock 
DEBUG 2015-12-11T19:09:00.092 src/modbusmaster.cpp @ 184 rdata locked 
DEBUG 2015-12-11T19:09:00.092 src/modbusmaster.cpp @ 188 rdata unlocked 
DEBUG 2015-12-11T19:09:00.092 src/modbusmaster.cpp @ 191 thread wakeup 
DEBUG 2015-12-11T19:09:00.092 src/pagewidget.cpp @ 208 End Get periodical parameters ------- 
DEBUG 2015-12-11T19:09:00.098 src/modbusmaster.cpp @ 327 Set slave 51 
 INFO 2015-12-11T19:09:00.098 src/modbusmaster.cpp @ 219 Tx Data :  "33  03  00  18  00  08  c0  19  " 
 INFO 2015-12-11T19:09:00.145 src/modbusmaster.cpp @ 231 Rx Data :  "33  03  10  00  29  00  00  dc  a4  1d  fd  04  00  00  00  00  00  00  00  33  6f  " 
DEBUG 2015-12-11T19:09:00.155 src/usodevice.cpp @ 406 Read parameter slot known slave  
DEBUG 2015-12-11T19:09:00.155 src/usodevice.cpp @ 409 Read parameter slot, known address  "0x30" 
DEBUG 2015-12-11T19:09:00.165 src/modbusmaster.cpp @ 327 Set slave 51 
 INFO 2015-12-11T19:09:00.165 src/modbusmaster.cpp @ 219 Tx Data :  "33  03  0b  5c  00  0a  03  e9  " 
 INFO 2015-12-11T19:09:00.212 src/modbusmaster.cpp @ 231 Rx Data :  "33  03  14  00  02  04  00  20  00  00  00  00  16  00  00  02  00  00  00  00  00  00  00  87  cb  " 
DEBUG 2015-12-11T19:09:00.222 src/usodevice.cpp @ 406 Read parameter slot known slave  
DEBUG 2015-12-11T19:09:00.222 src/usodevice.cpp @ 409 Read parameter slot, known address  "0x16b8" 
DEBUG 2015-12-11T19:09:00.232 src/modbusmaster.cpp @ 327 Set slave 51 
 INFO 2015-12-11T19:09:00.232 src/modbusmaster.cpp @ 219 Tx Data :  "33  03  01  26  00  08  a0  29  " 
 INFO 2015-12-11T19:09:00.278 src/modbusmaster.cpp @ 231 Rx Data :  "33  03  10  00  00  00  00  00  00  00  00  00  00  00  00  00  00  00  00  d2  e5  " 
DEBUG 2015-12-11T19:09:00.289 src/usodevice.cpp @ 406 Read parameter slot known slave  
DEBUG 2015-12-11T19:09:00.289 src/usodevice.cpp @ 409 Read parameter slot, known address  "0x24c" 
DEBUG 2015-12-11T19:09:00.289 src/usodevice.cpp @ 422 Sensor updte flags emit 
DEBUG 2015-12-11T19:09:00.289 src/pagewidget.cpp @ 180 Update sensor flags 
DEBUG 2015-12-11T19:09:00.289 src/pagewidget.cpp @ 185 Sensor flags  0   0   0   0 
DEBUG 2015-12-11T19:09:00.289 src/usodevice.cpp @ 330 Set command 3492 
DEBUG 2015-12-11T19:09:00.289 src/parameters/modbusparameter.cpp @ 334 Set value "0100" 
DEBUG 2015-12-11T19:09:00.289 src/modbusmaster.cpp @ 160 writedw 
DEBUG 2015-12-11T19:09:00.289 src/modbusmaster.cpp @ 143 w_waiter unlock 
DEBUG 2015-12-11T19:09:00.289 src/modbusmaster.cpp @ 145 wdata locked 
DEBUG 2015-12-11T19:09:00.289 src/modbusmaster.cpp @ 149 wdata unlocked 
DEBUG 2015-12-11T19:09:00.289 src/modbusmaster.cpp @ 152 thread wakeup 
 INFO 2015-12-11T19:09:00.299 src/modbusmaster.cpp @ 219 Tx Data :  "33  10  0d  a4  00  01  02  00  01  ef  15  " 
 INFO 2015-12-11T19:09:00.324 src/modbusmaster.cpp @ 231 Rx Data :  "33  10  0d  a4  00  01  46  94  " 
DEBUG 2015-12-11T19:09:01.091 src/pagewidget.cpp @ 203 Start Get periodical parameters ------- 
DEBUG 2015-12-11T19:09:01.091 src/modbusmaster.cpp @ 179 read 
DEBUG 2015-12-11T19:09:01.091 src/modbusmaster.cpp @ 182 waiter unlock 
DEBUG 2015-12-11T19:09:01.091 src/modbusmaster.cpp @ 184 rdata locked 
DEBUG 2015-12-11T19:09:01.091 src/modbusmaster.cpp @ 188 rdata unlocked 
DEBUG 2015-12-11T19:09:01.091 src/modbusmaster.cpp @ 191 thread wakeup 
DEBUG 2015-12-11T19:09:01.091 src/modbusmaster.cpp @ 179 read 
DEBUG 2015-12-11T19:09:01.092 src/modbusmaster.cpp @ 182 waiter unlock 
DEBUG 2015-12-11T19:09:01.092 src/modbusmaster.cpp @ 184 rdata locked 
DEBUG 2015-12-11T19:09:01.092 src/modbusmaster.cpp @ 188 rdata unlocked 
DEBUG 2015-12-11T19:09:01.092 src/modbusmaster.cpp @ 191 thread wakeup 
DEBUG 2015-12-11T19:09:01.092 src/modbusmaster.cpp @ 179 read 
DEBUG 2015-12-11T19:09:01.092 src/modbusmaster.cpp @ 182 waiter unlock 
DEBUG 2015-12-11T19:09:01.092 src/modbusmaster.cpp @ 184 rdata locked 
DEBUG 2015-12-11T19:09:01.092 src/modbusmaster.cpp @ 188 rdata unlocked 
DEBUG 2015-12-11T19:09:01.092 src/modbusmaster.cpp @ 191 thread wakeup 
DEBUG 2015-12-11T19:09:01.092 src/pagewidget.cpp @ 208 End Get periodical parameters ------- 
DEBUG 2015-12-11T19:09:01.100 src/modbusmaster.cpp @ 327 Set slave 51 
 INFO 2015-12-11T19:09:01.100 src/modbusmaster.cpp @ 219 Tx Data :  "33  03  00  18  00  08  c0  19  " 
 INFO 2015-12-11T19:09:01.141 src/modbusmaster.cpp @ 231 Rx Data :  "33  03  10  00  25  00  00  dc  a5  1d  fd  04  00  00  00  00  00  00  00  3b  96  " 
DEBUG 2015-12-11T19:09:01.151 src/usodevice.cpp @ 406 Read parameter slot known slave  
DEBUG 2015-12-11T19:09:01.151 src/usodevice.cpp @ 409 Read parameter slot, known address  "0x30" 
DEBUG 2015-12-11T19:09:01.161 src/modbusmaster.cpp @ 327 Set slave 51 
 INFO 2015-12-11T19:09:01.161 src/modbusmaster.cpp @ 219 Tx Data :  "33  03  0b  5c  00  0a  03  e9  " 
 INFO 2015-12-11T19:09:01.208 src/modbusmaster.cpp @ 231 Rx Data :  "33  03  14  00  02  04  00  20  00  00  00  00  16  00  00  02  00  00  00  00  00  00  00  87  cb  " 
DEBUG 2015-12-11T19:09:01.218 src/usodevice.cpp @ 406 Read parameter slot known slave  
DEBUG 2015-12-11T19:09:01.218 src/usodevice.cpp @ 409 Read parameter slot, known address  "0x16b8" 
DEBUG 2015-12-11T19:09:01.228 src/modbusmaster.cpp @ 327 Set slave 51 
 INFO 2015-12-11T19:09:01.228 src/modbusmaster.cpp @ 219 Tx Data :  "33  03  01  26  00  08  a0  29  " 
 INFO 2015-12-11T19:09:01.274 src/modbusmaster.cpp @ 231 Rx Data :  "33  03  10  00  00  00  00  00  00  00  00  00  00  00  00  00  00  00  00  d2  e5  " 
DEBUG 2015-12-11T19:09:01.285 src/usodevice.cpp @ 406 Read parameter slot known slave  
DEBUG 2015-12-11T19:09:01.285 src/usodevice.cpp @ 409 Read parameter slot, known address  "0x24c" 
DEBUG 2015-12-11T19:09:01.285 src/usodevice.cpp @ 422 Sensor updte flags emit 
DEBUG 2015-12-11T19:09:01.285 src/pagewidget.cpp @ 180 Update sensor flags 
DEBUG 2015-12-11T19:09:01.285 src/pagewidget.cpp @ 185 Sensor flags  0   0   0   0 
DEBUG 2015-12-11T19:09:01.285 src/usodevice.cpp @ 330 Set command 3492 
DEBUG 2015-12-11T19:09:01.285 src/parameters/modbusparameter.cpp @ 334 Set value "0100" 
DEBUG 2015-12-11T19:09:01.285 src/modbusmaster.cpp @ 160 writedw 
DEBUG 2015-12-11T19:09:01.285 src/modbusmaster.cpp @ 143 w_waiter unlock 
DEBUG 2015-12-11T19:09:01.285 src/modbusmaster.cpp @ 145 wdata locked 
DEBUG 2015-12-11T19:09:01.285 src/modbusmaster.cpp @ 149 wdata unlocked 
DEBUG 2015-12-11T19:09:01.285 src/modbusmaster.cpp @ 152 thread wakeup 
 INFO 2015-12-11T19:09:01.295 src/modbusmaster.cpp @ 219 Tx Data :  "33  10  0d  a4  00  01  02  00  01  ef  15  " 
 INFO 2015-12-11T19:09:01.320 src/modbusmaster.cpp @ 231 Rx Data :  "33  10  0d  a4  00  01  46  94  " 
DEBUG 2015-12-11T19:09:02.091 src/pagewidget.cpp @ 203 Start Get periodical parameters ------- 
DEBUG 2015-12-11T19:09:02.091 src/modbusmaster.cpp @ 179 read 
DEBUG 2015-12-11T19:09:02.091 src/modbusmaster.cpp @ 182 waiter unlock 
DEBUG 2015-12-11T19:09:02.091 src/modbusmaster.cpp @ 184 rdata locked 
DEBUG 2015-12-11T19:09:02.091 src/modbusmaster.cpp @ 188 rdata unlocked 
DEBUG 2015-12-11T19:09:02.091 src/modbusmaster.cpp @ 191 thread wakeup 
DEBUG 2015-12-11T19:09:02.091 src/modbusmaster.cpp @ 179 read 
DEBUG 2015-12-11T19:09:02.091 src/modbusmaster.cpp @ 182 waiter unlock 
DEBUG 2015-12-11T19:09:02.092 src/modbusmaster.cpp @ 184 rdata locked 
DEBUG 2015-12-11T19:09:02.092 src/modbusmaster.cpp @ 188 rdata unlocked 
DEBUG 2015-12-11T19:09:02.092 src/modbusmaster.cpp @ 191 thread wakeup 
DEBUG 2015-12-11T19:09:02.092 src/modbusmaster.cpp @ 179 read 
DEBUG 2015-12-11T19:09:02.092 src/modbusmaster.cpp @ 182 waiter unlock 
DEBUG 2015-12-11T19:09:02.092 src/modbusmaster.cpp @ 184 rdata locked 
DEBUG 2015-12-11T19:09:02.092 src/modbusmaster.cpp @ 188 rdata unlocked 
DEBUG 2015-12-11T19:09:02.092 src/modbusmaster.cpp @ 191 thread wakeup 
DEBUG 2015-12-11T19:09:02.092 src/pagewidget.cpp @ 208 End Get periodical parameters ------- 
DEBUG 2015-12-11T19:09:02.096 src/modbusmaster.cpp @ 327 Set slave 51 
 INFO 2015-12-11T19:09:02.096 src/modbusmaster.cpp @ 219 Tx Data :  "33  03  00  18  00  08  c0  19  " 
 INFO 2015-12-11T19:09:02.137 src/modbusmaster.cpp @ 231 Rx Data :  "33  03  10  00  21  00  00  dc  a6  1d  fd  04  00  00  00  00  00  00  00  30  d1  " 
DEBUG 2015-12-11T19:09:02.147 src/usodevice.cpp @ 406 Read parameter slot known slave  
DEBUG 2015-12-11T19:09:02.147 src/usodevice.cpp @ 409 Read parameter slot, known address  "0x30" 
DEBUG 2015-12-11T19:09:02.157 src/modbusmaster.cpp @ 327 Set slave 51 
 INFO 2015-12-11T19:09:02.157 src/modbusmaster.cpp @ 219 Tx Data :  "33  03  0b  5c  00  0a  03  e9  " 
 INFO 2015-12-11T19:09:02.204 src/modbusmaster.cpp @ 231 Rx Data :  "33  03  14  00  02  04  00  20  00  00  00  00  16  00  00  02  00  00  00  00  00  00  00  87  cb  " 
DEBUG 2015-12-11T19:09:02.214 src/usodevice.cpp @ 406 Read parameter slot known slave  
DEBUG 2015-12-11T19:09:02.214 src/usodevice.cpp @ 409 Read parameter slot, known address  "0x16b8" 
DEBUG 2015-12-11T19:09:02.224 src/modbusmaster.cpp @ 327 Set slave 51 
 INFO 2015-12-11T19:09:02.224 src/modbusmaster.cpp @ 219 Tx Data :  "33  03  01  26  00  08  a0  29  " 
 INFO 2015-12-11T19:09:02.270 src/modbusmaster.cpp @ 231 Rx Data :  "33  03  10  00  00  00  00  00  00  00  00  00  00  00  00  00  00  00  00  d2  e5  " 
DEBUG 2015-12-11T19:09:02.281 src/usodevice.cpp @ 406 Read parameter slot known slave  
DEBUG 2015-12-11T19:09:02.281 src/usodevice.cpp @ 409 Read parameter slot, known address  "0x24c" 
DEBUG 2015-12-11T19:09:02.281 src/usodevice.cpp @ 422 Sensor updte flags emit 
DEBUG 2015-12-11T19:09:02.281 src/pagewidget.cpp @ 180 Update sensor flags 
DEBUG 2015-12-11T19:09:02.281 src/pagewidget.cpp @ 185 Sensor flags  0   0   0   0 
DEBUG 2015-12-11T19:09:02.281 src/usodevice.cpp @ 330 Set command 3492 
DEBUG 2015-12-11T19:09:02.281 src/parameters/modbusparameter.cpp @ 334 Set value "0100" 
DEBUG 2015-12-11T19:09:02.281 src/modbusmaster.cpp @ 160 writedw 
DEBUG 2015-12-11T19:09:02.281 src/modbusmaster.cpp @ 143 w_waiter unlock 
DEBUG 2015-12-11T19:09:02.281 src/modbusmaster.cpp @ 145 wdata locked 
DEBUG 2015-12-11T19:09:02.281 src/modbusmaster.cpp @ 149 wdata unlocked 
DEBUG 2015-12-11T19:09:02.281 src/modbusmaster.cpp @ 152 thread wakeup 
 INFO 2015-12-11T19:09:02.291 src/modbusmaster.cpp @ 219 Tx Data :  "33  10  0d  a4  00  01  02  00  01  ef  15  " 
 INFO 2015-12-11T19:09:02.316 src/modbusmaster.cpp @ 231 Rx Data :  "33  10  0d  a4  00  01  46  94  " 
DEBUG 2015-12-11T19:09:03.091 src/pagewidget.cpp @ 203 Start Get periodical parameters ------- 
DEBUG 2015-12-11T19:09:03.091 src/modbusmaster.cpp @ 179 read 
DEBUG 2015-12-11T19:09:03.092 src/modbusmaster.cpp @ 182 waiter unlock 
DEBUG 2015-12-11T19:09:03.092 src/modbusmaster.cpp @ 184 rdata locked 
DEBUG 2015-12-11T19:09:03.092 src/modbusmaster.cpp @ 188 rdata unlocked 
DEBUG 2015-12-11T19:09:03.092 src/modbusmaster.cpp @ 191 thread wakeup 
DEBUG 2015-12-11T19:09:03.092 src/modbusmaster.cpp @ 179 read 
DEBUG 2015-12-11T19:09:03.092 src/modbusmaster.cpp @ 182 waiter unlock 
DEBUG 2015-12-11T19:09:03.092 src/modbusmaster.cpp @ 184 rdata locked 
DEBUG 2015-12-11T19:09:03.092 src/modbusmaster.cpp @ 188 rdata unlocked 
DEBUG 2015-12-11T19:09:03.092 src/modbusmaster.cpp @ 191 thread wakeup 
DEBUG 2015-12-11T19:09:03.092 src/modbusmaster.cpp @ 179 read 
DEBUG 2015-12-11T19:09:03.092 src/modbusmaster.cpp @ 182 waiter unlock 
DEBUG 2015-12-11T19:09:03.092 src/modbusmaster.cpp @ 184 rdata locked 
DEBUG 2015-12-11T19:09:03.092 src/modbusmaster.cpp @ 188 rdata unlocked 
DEBUG 2015-12-11T19:09:03.092 src/modbusmaster.cpp @ 191 thread wakeup 
DEBUG 2015-12-11T19:09:03.092 src/pagewidget.cpp @ 208 End Get periodical parameters ------- 
DEBUG 2015-12-11T19:09:03.102 src/modbusmaster.cpp @ 327 Set slave 51 
 INFO 2015-12-11T19:09:03.102 src/modbusmaster.cpp @ 219 Tx Data :  "33  03  00  18  00  08  c0  19  " 
 INFO 2015-12-11T19:09:03.149 src/modbusmaster.cpp @ 231 Rx Data :  "33  03  10  00  2d  00  00  dc  a7  1d  fd  04  00  00  00  00  00  00  00  38  28  " 
DEBUG 2015-12-11T19:09:03.159 src/usodevice.cpp @ 406 Read parameter slot known slave  
DEBUG 2015-12-11T19:09:03.159 src/usodevice.cpp @ 409 Read parameter slot, known address  "0x30" 
DEBUG 2015-12-11T19:09:03.169 src/modbusmaster.cpp @ 327 Set slave 51 
 INFO 2015-12-11T19:09:03.169 src/modbusmaster.cpp @ 219 Tx Data :  "33  03  0b  5c  00  0a  03  e9  " 
 INFO 2015-12-11T19:09:03.216 src/modbusmaster.cpp @ 231 Rx Data :  "33  03  14  00  02  04  00  20  00  00  00  00  16  00  00  02  00  00  00  00  00  00  00  87  cb  " 
DEBUG 2015-12-11T19:09:03.226 src/usodevice.cpp @ 406 Read parameter slot known slave  
DEBUG 2015-12-11T19:09:03.226 src/usodevice.cpp @ 409 Read parameter slot, known address  "0x16b8" 
DEBUG 2015-12-11T19:09:03.236 src/modbusmaster.cpp @ 327 Set slave 51 
 INFO 2015-12-11T19:09:03.236 src/modbusmaster.cpp @ 219 Tx Data :  "33  03  01  26  00  08  a0  29  " 
 INFO 2015-12-11T19:09:03.282 src/modbusmaster.cpp @ 231 Rx Data :  "33  03  10  00  00  00  00  00  00  00  00  00  00  00  00  00  00  00  00  d2  e5  " 
DEBUG 2015-12-11T19:09:03.292 src/usodevice.cpp @ 406 Read parameter slot known slave  
DEBUG 2015-12-11T19:09:03.292 src/usodevice.cpp @ 409 Read parameter slot, known address  "0x24c" 
DEBUG 2015-12-11T19:09:03.292 src/usodevice.cpp @ 422 Sensor updte flags emit 
DEBUG 2015-12-11T19:09:03.292 src/pagewidget.cpp @ 180 Update sensor flags 
DEBUG 2015-12-11T19:09:03.293 src/pagewidget.cpp @ 185 Sensor flags  0   0   0   0 
DEBUG 2015-12-11T19:09:03.293 src/usodevice.cpp @ 330 Set command 3492 
DEBUG 2015-12-11T19:09:03.293 src/parameters/modbusparameter.cpp @ 334 Set value "0100" 
DEBUG 2015-12-11T19:09:03.293 src/modbusmaster.cpp @ 160 writedw 
DEBUG 2015-12-11T19:09:03.293 src/modbusmaster.cpp @ 143 w_waiter unlock 
DEBUG 2015-12-11T19:09:03.293 src/modbusmaster.cpp @ 145 wdata locked 
DEBUG 2015-12-11T19:09:03.293 src/modbusmaster.cpp @ 149 wdata unlocked 
DEBUG 2015-12-11T19:09:03.293 src/modbusmaster.cpp @ 152 thread wakeup 
 INFO 2015-12-11T19:09:03.302 src/modbusmaster.cpp @ 219 Tx Data :  "33  10  0d  a4  00  01  02  00  01  ef  15  " 
 INFO 2015-12-11T19:09:03.328 src/modbusmaster.cpp @ 231 Rx Data :  "33  10  0d  a4  00  01  46  94  " 
DEBUG 2015-12-11T19:09:04.091 src/pagewidget.cpp @ 203 Start Get periodical parameters ------- 
DEBUG 2015-12-11T19:09:04.091 src/modbusmaster.cpp @ 179 read 
DEBUG 2015-12-11T19:09:04.091 src/modbusmaster.cpp @ 182 waiter unlock 
DEBUG 2015-12-11T19:09:04.091 src/modbusmaster.cpp @ 184 rdata locked 
DEBUG 2015-12-11T19:09:04.091 src/modbusmaster.cpp @ 188 rdata unlocked 
DEBUG 2015-12-11T19:09:04.091 src/modbusmaster.cpp @ 191 thread wakeup 
DEBUG 2015-12-11T19:09:04.091 src/modbusmaster.cpp @ 179 read 
DEBUG 2015-12-11T19:09:04.091 src/modbusmaster.cpp @ 182 waiter unlock 
DEBUG 2015-12-11T19:09:04.091 src/modbusmaster.cpp @ 184 rdata locked 
DEBUG 2015-12-11T19:09:04.091 src/modbusmaster.cpp @ 188 rdata unlocked 
DEBUG 2015-12-11T19:09:04.091 src/modbusmaster.cpp @ 191 thread wakeup 
DEBUG 2015-12-11T19:09:04.091 src/modbusmaster.cpp @ 179 read 
DEBUG 2015-12-11T19:09:04.091 src/modbusmaster.cpp @ 182 waiter unlock 
DEBUG 2015-12-11T19:09:04.091 src/modbusmaster.cpp @ 184 rdata locked 
DEBUG 2015-12-11T19:09:04.091 src/modbusmaster.cpp @ 188 rdata unlocked 
DEBUG 2015-12-11T19:09:04.091 src/modbusmaster.cpp @ 191 thread wakeup 
DEBUG 2015-12-11T19:09:04.092 src/pagewidget.cpp @ 208 End Get periodical parameters ------- 
DEBUG 2015-12-11T19:09:04.093 src/modbusmaster.cpp @ 327 Set slave 51 
 INFO 2015-12-11T19:09:04.093 src/modbusmaster.cpp @ 219 Tx Data :  "33  03  00  18  00  08  c0  19  " 
 INFO 2015-12-11T19:09:04.137 src/modbusmaster.cpp @ 231 Rx Data :  "33  03  10  00  21  00  00  dc  a8  1d  fd  04  00  00  00  00  00  00  00  04  39  " 
DEBUG 2015-12-11T19:09:04.147 src/usodevice.cpp @ 406 Read parameter slot known slave  
DEBUG 2015-12-11T19:09:04.147 src/usodevice.cpp @ 409 Read parameter slot, known address  "0x30" 
DEBUG 2015-12-11T19:09:04.157 src/modbusmaster.cpp @ 327 Set slave 51 
 INFO 2015-12-11T19:09:04.157 src/modbusmaster.cpp @ 219 Tx Data :  "33  03  0b  5c  00  0a  03  e9  " 
 INFO 2015-12-11T19:09:04.204 src/modbusmaster.cpp @ 231 Rx Data :  "33  03  14  00  02  04  00  20  00  00  00  00  16  00  00  02  00  00  00  00  00  00  00  87  cb  " 
DEBUG 2015-12-11T19:09:04.214 src/usodevice.cpp @ 406 Read parameter slot known slave  
DEBUG 2015-12-11T19:09:04.214 src/usodevice.cpp @ 409 Read parameter slot, known address  "0x16b8" 
DEBUG 2015-12-11T19:09:04.224 src/modbusmaster.cpp @ 327 Set slave 51 
 INFO 2015-12-11T19:09:04.224 src/modbusmaster.cpp @ 219 Tx Data :  "33  03  01  26  00  08  a0  29  " 
 INFO 2015-12-11T19:09:04.270 src/modbusmaster.cpp @ 231 Rx Data :  "33  03  10  00  00  00  00  00  00  00  00  00  00  00  00  00  00  00  00  d2  e5  " 
DEBUG 2015-12-11T19:09:04.280 src/usodevice.cpp @ 406 Read parameter slot known slave  
DEBUG 2015-12-11T19:09:04.281 src/usodevice.cpp @ 409 Read parameter slot, known address  "0x24c" 
DEBUG 2015-12-11T19:09:04.281 src/usodevice.cpp @ 422 Sensor updte flags emit 
DEBUG 2015-12-11T19:09:04.281 src/pagewidget.cpp @ 180 Update sensor flags 
DEBUG 2015-12-11T19:09:04.281 src/pagewidget.cpp @ 185 Sensor flags  0   0   0   0 
DEBUG 2015-12-11T19:09:04.281 src/usodevice.cpp @ 330 Set command 3492 
DEBUG 2015-12-11T19:09:04.281 src/parameters/modbusparameter.cpp @ 334 Set value "0100" 
DEBUG 2015-12-11T19:09:04.281 src/modbusmaster.cpp @ 160 writedw 
DEBUG 2015-12-11T19:09:04.281 src/modbusmaster.cpp @ 143 w_waiter unlock 
DEBUG 2015-12-11T19:09:04.281 src/modbusmaster.cpp @ 145 wdata locked 
DEBUG 2015-12-11T19:09:04.281 src/modbusmaster.cpp @ 149 wdata unlocked 
DEBUG 2015-12-11T19:09:04.281 src/modbusmaster.cpp @ 152 thread wakeup 
 INFO 2015-12-11T19:09:04.290 src/modbusmaster.cpp @ 219 Tx Data :  "33  10  0d  a4  00  01  02  00  01  ef  15  " 
 INFO 2015-12-11T19:09:04.316 src/modbusmaster.cpp @ 231 Rx Data :  "33  10  0d  a4  00  01  46  94  " 
DEBUG 2015-12-11T19:09:05.091 src/pagewidget.cpp @ 203 Start Get periodical parameters ------- 
DEBUG 2015-12-11T19:09:05.091 src/modbusmaster.cpp @ 179 read 
DEBUG 2015-12-11T19:09:05.091 src/modbusmaster.cpp @ 182 waiter unlock 
DEBUG 2015-12-11T19:09:05.091 src/modbusmaster.cpp @ 184 rdata locked 
DEBUG 2015-12-11T19:09:05.091 src/modbusmaster.cpp @ 188 rdata unlocked 
DEBUG 2015-12-11T19:09:05.091 src/modbusmaster.cpp @ 191 thread wakeup 
DEBUG 2015-12-11T19:09:05.091 src/modbusmaster.cpp @ 179 read 
DEBUG 2015-12-11T19:09:05.091 src/modbusmaster.cpp @ 182 waiter unlock 
DEBUG 2015-12-11T19:09:05.091 src/modbusmaster.cpp @ 184 rdata locked 
DEBUG 2015-12-11T19:09:05.091 src/modbusmaster.cpp @ 188 rdata unlocked 
DEBUG 2015-12-11T19:09:05.091 src/modbusmaster.cpp @ 327 Set slave 51 
DEBUG 2015-12-11T19:09:05.091 src/modbusmaster.cpp @ 191 thread wakeup 
 INFO 2015-12-11T19:09:05.091 src/modbusmaster.cpp @ 219 Tx Data :  "33  03  00  18  00  08  c0  19  " 
DEBUG 2015-12-11T19:09:05.092 src/modbusmaster.cpp @ 179 read 
DEBUG 2015-12-11T19:09:05.092 src/modbusmaster.cpp @ 182 waiter unlock 
DEBUG 2015-12-11T19:09:05.092 src/modbusmaster.cpp @ 184 rdata locked 
DEBUG 2015-12-11T19:09:05.092 src/modbusmaster.cpp @ 188 rdata unlocked 
DEBUG 2015-12-11T19:09:05.092 src/modbusmaster.cpp @ 191 thread wakeup 
DEBUG 2015-12-11T19:09:05.092 src/pagewidget.cpp @ 208 End Get periodical parameters ------- 
 INFO 2015-12-11T19:09:05.132 src/modbusmaster.cpp @ 231 Rx Data :  "33  03  10  00  1c  00  00  dc  a9  1d  fd  04  00  00  00  00  00  00  00  fd  d4  " 
DEBUG 2015-12-11T19:09:05.142 src/usodevice.cpp @ 406 Read parameter slot known slave  
DEBUG 2015-12-11T19:09:05.142 src/usodevice.cpp @ 409 Read parameter slot, known address  "0x30" 
DEBUG 2015-12-11T19:09:05.152 src/modbusmaster.cpp @ 327 Set slave 51 
 INFO 2015-12-11T19:09:05.152 src/modbusmaster.cpp @ 219 Tx Data :  "33  03  0b  5c  00  0a  03  e9  " 
 INFO 2015-12-11T19:09:05.196 src/modbusmaster.cpp @ 231 Rx Data :  "33  03  14  00  02  04  00  20  00  00  00  00  16  00  00  02  00  00  00  00  00  00  00  87  cb  " 
DEBUG 2015-12-11T19:09:05.207 src/usodevice.cpp @ 406 Read parameter slot known slave  
DEBUG 2015-12-11T19:09:05.207 src/usodevice.cpp @ 409 Read parameter slot, known address  "0x16b8" 
DEBUG 2015-12-11T19:09:05.217 src/modbusmaster.cpp @ 327 Set slave 51 
 INFO 2015-12-11T19:09:05.217 src/modbusmaster.cpp @ 219 Tx Data :  "33  03  01  26  00  08  a0  29  " 
 INFO 2015-12-11T19:09:05.257 src/modbusmaster.cpp @ 231 Rx Data :  "33  03  10  00  00  00  00  00  00  00  00  00  00  00  00  00  00  00  00  d2  e5  " 
DEBUG 2015-12-11T19:09:05.267 src/usodevice.cpp @ 406 Read parameter slot known slave  
DEBUG 2015-12-11T19:09:05.267 src/usodevice.cpp @ 409 Read parameter slot, known address  "0x24c" 
DEBUG 2015-12-11T19:09:05.267 src/usodevice.cpp @ 422 Sensor updte flags emit 
DEBUG 2015-12-11T19:09:05.267 src/pagewidget.cpp @ 180 Update sensor flags 
DEBUG 2015-12-11T19:09:05.267 src/pagewidget.cpp @ 185 Sensor flags  0   0   0   0 
DEBUG 2015-12-11T19:09:05.267 src/usodevice.cpp @ 330 Set command 3492 
DEBUG 2015-12-11T19:09:05.267 src/parameters/modbusparameter.cpp @ 334 Set value "0100" 
DEBUG 2015-12-11T19:09:05.267 src/modbusmaster.cpp @ 160 writedw 
DEBUG 2015-12-11T19:09:05.267 src/modbusmaster.cpp @ 143 w_waiter unlock 
DEBUG 2015-12-11T19:09:05.267 src/modbusmaster.cpp @ 145 wdata locked 
DEBUG 2015-12-11T19:09:05.267 src/modbusmaster.cpp @ 149 wdata unlocked 
DEBUG 2015-12-11T19:09:05.267 src/modbusmaster.cpp @ 152 thread wakeup 
 INFO 2015-12-11T19:09:05.277 src/modbusmaster.cpp @ 219 Tx Data :  "33  10  0d  a4  00  01  02  00  01  ef  15  " 
 INFO 2015-12-11T19:09:05.302 src/modbusmaster.cpp @ 231 Rx Data :  "33  10  0d  a4  00  01  46  94  " 
DEBUG 2015-12-11T19:09:06.090 src/pagewidget.cpp @ 203 Start Get periodical parameters ------- 
DEBUG 2015-12-11T19:09:06.091 src/modbusmaster.cpp @ 179 read 
DEBUG 2015-12-11T19:09:06.091 src/modbusmaster.cpp @ 182 waiter unlock 
DEBUG 2015-12-11T19:09:06.091 src/modbusmaster.cpp @ 184 rdata locked 
DEBUG 2015-12-11T19:09:06.091 src/modbusmaster.cpp @ 188 rdata unlocked 
DEBUG 2015-12-11T19:09:06.091 src/modbusmaster.cpp @ 191 thread wakeup 
DEBUG 2015-12-11T19:09:06.091 src/modbusmaster.cpp @ 179 read 
DEBUG 2015-12-11T19:09:06.091 src/modbusmaster.cpp @ 182 waiter unlock 
DEBUG 2015-12-11T19:09:06.091 src/modbusmaster.cpp @ 184 rdata locked 
DEBUG 2015-12-11T19:09:06.091 src/modbusmaster.cpp @ 188 rdata unlocked 
DEBUG 2015-12-11T19:09:06.091 src/modbusmaster.cpp @ 191 thread wakeup 
DEBUG 2015-12-11T19:09:06.091 src/modbusmaster.cpp @ 179 read 
DEBUG 2015-12-11T19:09:06.091 src/modbusmaster.cpp @ 182 waiter unlock 
DEBUG 2015-12-11T19:09:06.091 src/modbusmaster.cpp @ 184 rdata locked 
DEBUG 2015-12-11T19:09:06.091 src/modbusmaster.cpp @ 188 rdata unlocked 
DEBUG 2015-12-11T19:09:06.091 src/modbusmaster.cpp @ 191 thread wakeup 
DEBUG 2015-12-11T19:09:06.091 src/pagewidget.cpp @ 208 End Get periodical parameters ------- 
DEBUG 2015-12-11T19:09:06.098 src/modbusmaster.cpp @ 327 Set slave 51 
 INFO 2015-12-11T19:09:06.098 src/modbusmaster.cpp @ 219 Tx Data :  "33  03  00  18  00  08  c0  19  " 
 INFO 2015-12-11T19:09:06.138 src/modbusmaster.cpp @ 231 Rx Data :  "33  03  10  00  22  00  00  dc  aa  1d  fd  04  00  00  00  00  00  00  00  4c  80  " 
DEBUG 2015-12-11T19:09:06.148 src/usodevice.cpp @ 406 Read parameter slot known slave  
DEBUG 2015-12-11T19:09:06.149 src/usodevice.cpp @ 409 Read parameter slot, known address  "0x30" 
DEBUG 2015-12-11T19:09:06.158 src/modbusmaster.cpp @ 327 Set slave 51 
 INFO 2015-12-11T19:09:06.159 src/modbusmaster.cpp @ 219 Tx Data :  "33  03  0b  5c  00  0a  03  e9  " 
 INFO 2015-12-11T19:09:06.203 src/modbusmaster.cpp @ 231 Rx Data :  "33  03  14  00  02  04  00  20  00  00  00  00  16  00  00  02  00  00  00  00  00  00  00  87  cb  " 
DEBUG 2015-12-11T19:09:06.213 src/usodevice.cpp @ 406 Read parameter slot known slave  
DEBUG 2015-12-11T19:09:06.213 src/usodevice.cpp @ 409 Read parameter slot, known address  "0x16b8" 
DEBUG 2015-12-11T19:09:06.223 src/modbusmaster.cpp @ 327 Set slave 51 
 INFO 2015-12-11T19:09:06.223 src/modbusmaster.cpp @ 219 Tx Data :  "33  03  01  26  00  08  a0  29  " 
 INFO 2015-12-11T19:09:06.263 src/modbusmaster.cpp @ 231 Rx Data :  "33  03  10  00  00  00  00  00  00  00  00  00  00  00  00  00  00  00  00  d2  e5  " 
DEBUG 2015-12-11T19:09:06.273 src/usodevice.cpp @ 406 Read parameter slot known slave  
DEBUG 2015-12-11T19:09:06.274 src/usodevice.cpp @ 409 Read parameter slot, known address  "0x24c" 
DEBUG 2015-12-11T19:09:06.274 src/usodevice.cpp @ 422 Sensor updte flags emit 
DEBUG 2015-12-11T19:09:06.274 src/pagewidget.cpp @ 180 Update sensor flags 
DEBUG 2015-12-11T19:09:06.274 src/pagewidget.cpp @ 185 Sensor flags  0   0   0   0 
DEBUG 2015-12-11T19:09:06.274 src/usodevice.cpp @ 330 Set command 3492 
DEBUG 2015-12-11T19:09:06.274 src/parameters/modbusparameter.cpp @ 334 Set value "0100" 
DEBUG 2015-12-11T19:09:06.274 src/modbusmaster.cpp @ 160 writedw 
DEBUG 2015-12-11T19:09:06.274 src/modbusmaster.cpp @ 143 w_waiter unlock 
DEBUG 2015-12-11T19:09:06.274 src/modbusmaster.cpp @ 145 wdata locked 
DEBUG 2015-12-11T19:09:06.274 src/modbusmaster.cpp @ 149 wdata unlocked 
DEBUG 2015-12-11T19:09:06.274 src/modbusmaster.cpp @ 152 thread wakeup 
 INFO 2015-12-11T19:09:06.283 src/modbusmaster.cpp @ 219 Tx Data :  "33  10  0d  a4  00  01  02  00  01  ef  15  " 
 INFO 2015-12-11T19:09:06.309 src/modbusmaster.cpp @ 231 Rx Data :  "33  10  0d  a4  00  01  46  94  " 
DEBUG 2015-12-11T19:09:07.091 src/pagewidget.cpp @ 203 Start Get periodical parameters ------- 
DEBUG 2015-12-11T19:09:07.091 src/modbusmaster.cpp @ 179 read 
DEBUG 2015-12-11T19:09:07.091 src/modbusmaster.cpp @ 182 waiter unlock 
DEBUG 2015-12-11T19:09:07.091 src/modbusmaster.cpp @ 184 rdata locked 
DEBUG 2015-12-11T19:09:07.091 src/modbusmaster.cpp @ 188 rdata unlocked 
DEBUG 2015-12-11T19:09:07.091 src/modbusmaster.cpp @ 191 thread wakeup 
DEBUG 2015-12-11T19:09:07.091 src/modbusmaster.cpp @ 179 read 
DEBUG 2015-12-11T19:09:07.091 src/modbusmaster.cpp @ 182 waiter unlock 
DEBUG 2015-12-11T19:09:07.091 src/modbusmaster.cpp @ 184 rdata locked 
DEBUG 2015-12-11T19:09:07.091 src/modbusmaster.cpp @ 188 rdata unlocked 
DEBUG 2015-12-11T19:09:07.091 src/modbusmaster.cpp @ 191 thread wakeup 
DEBUG 2015-12-11T19:09:07.091 src/modbusmaster.cpp @ 179 read 
DEBUG 2015-12-11T19:09:07.091 src/modbusmaster.cpp @ 182 waiter unlock 
DEBUG 2015-12-11T19:09:07.091 src/modbusmaster.cpp @ 184 rdata locked 
DEBUG 2015-12-11T19:09:07.092 src/modbusmaster.cpp @ 188 rdata unlocked 
DEBUG 2015-12-11T19:09:07.092 src/modbusmaster.cpp @ 191 thread wakeup 
DEBUG 2015-12-11T19:09:07.092 src/pagewidget.cpp @ 208 End Get periodical parameters ------- 
DEBUG 2015-12-11T19:09:07.094 src/modbusmaster.cpp @ 327 Set slave 51 
 INFO 2015-12-11T19:09:07.095 src/modbusmaster.cpp @ 219 Tx Data :  "33  03  00  18  00  08  c0  19  " 
 INFO 2015-12-11T19:09:07.135 src/modbusmaster.cpp @ 231 Rx Data :  "33  03  10  00  1f  00  00  dc  ab  1d  fd  04  00  00  00  00  00  00  00  b5  6d  " 
DEBUG 2015-12-11T19:09:07.145 src/usodevice.cpp @ 406 Read parameter slot known slave  
DEBUG 2015-12-11T19:09:07.145 src/usodevice.cpp @ 409 Read parameter slot, known address  "0x30" 
DEBUG 2015-12-11T19:09:07.155 src/modbusmaster.cpp @ 327 Set slave 51 
 INFO 2015-12-11T19:09:07.155 src/modbusmaster.cpp @ 219 Tx Data :  "33  03  0b  5c  00  0a  03  e9  " 
 INFO 2015-12-11T19:09:07.199 src/modbusmaster.cpp @ 231 Rx Data :  "33  03  14  00  02  04  00  20  00  00  00  00  16  00  00  02  00  00  00  00  00  00  00  87  cb  " 
DEBUG 2015-12-11T19:09:07.209 src/usodevice.cpp @ 406 Read parameter slot known slave  
DEBUG 2015-12-11T19:09:07.210 src/usodevice.cpp @ 409 Read parameter slot, known address  "0x16b8" 
DEBUG 2015-12-11T19:09:07.219 src/modbusmaster.cpp @ 327 Set slave 51 
 INFO 2015-12-11T19:09:07.220 src/modbusmaster.cpp @ 219 Tx Data :  "33  03  01  26  00  08  a0  29  " 
 INFO 2015-12-11T19:09:07.260 src/modbusmaster.cpp @ 231 Rx Data :  "33  03  10  00  00  00  00  00  00  00  00  00  00  00  00  00  00  00  00  d2  e5  " 
DEBUG 2015-12-11T19:09:07.270 src/usodevice.cpp @ 406 Read parameter slot known slave  
DEBUG 2015-12-11T19:09:07.270 src/usodevice.cpp @ 409 Read parameter slot, known address  "0x24c" 
DEBUG 2015-12-11T19:09:07.270 src/usodevice.cpp @ 422 Sensor updte flags emit 
DEBUG 2015-12-11T19:09:07.270 src/pagewidget.cpp @ 180 Update sensor flags 
DEBUG 2015-12-11T19:09:07.270 src/pagewidget.cpp @ 185 Sensor flags  0   0   0   0 
DEBUG 2015-12-11T19:09:07.270 src/usodevice.cpp @ 330 Set command 3492 
DEBUG 2015-12-11T19:09:07.270 src/parameters/modbusparameter.cpp @ 334 Set value "0100" 
DEBUG 2015-12-11T19:09:07.270 src/modbusmaster.cpp @ 160 writedw 
DEBUG 2015-12-11T19:09:07.270 src/modbusmaster.cpp @ 143 w_waiter unlock 
DEBUG 2015-12-11T19:09:07.270 src/modbusmaster.cpp @ 145 wdata locked 
DEBUG 2015-12-11T19:09:07.270 src/modbusmaster.cpp @ 149 wdata unlocked 
DEBUG 2015-12-11T19:09:07.270 src/modbusmaster.cpp @ 152 thread wakeup 
 INFO 2015-12-11T19:09:07.280 src/modbusmaster.cpp @ 219 Tx Data :  "33  10  0d  a4  00  01  02  00  01  ef  15  " 
 INFO 2015-12-11T19:09:07.305 src/modbusmaster.cpp @ 231 Rx Data :  "33  10  0d  a4  00  01  46  94  " 
DEBUG 2015-12-11T19:09:08.091 src/pagewidget.cpp @ 203 Start Get periodical parameters ------- 
DEBUG 2015-12-11T19:09:08.091 src/modbusmaster.cpp @ 179 read 
DEBUG 2015-12-11T19:09:08.092 src/modbusmaster.cpp @ 182 waiter unlock 
DEBUG 2015-12-11T19:09:08.092 src/modbusmaster.cpp @ 184 rdata locked 
DEBUG 2015-12-11T19:09:08.092 src/modbusmaster.cpp @ 188 rdata unlocked 
DEBUG 2015-12-11T19:09:08.092 src/modbusmaster.cpp @ 191 thread wakeup 
DEBUG 2015-12-11T19:09:08.092 src/modbusmaster.cpp @ 179 read 
DEBUG 2015-12-11T19:09:08.092 src/modbusmaster.cpp @ 182 waiter unlock 
DEBUG 2015-12-11T19:09:08.092 src/modbusmaster.cpp @ 184 rdata locked 
DEBUG 2015-12-11T19:09:08.092 src/modbusmaster.cpp @ 188 rdata unlocked 
DEBUG 2015-12-11T19:09:08.092 src/modbusmaster.cpp @ 191 thread wakeup 
DEBUG 2015-12-11T19:09:08.092 src/modbusmaster.cpp @ 179 read 
DEBUG 2015-12-11T19:09:08.092 src/modbusmaster.cpp @ 182 waiter unlock 
DEBUG 2015-12-11T19:09:08.092 src/modbusmaster.cpp @ 184 rdata locked 
DEBUG 2015-12-11T19:09:08.092 src/modbusmaster.cpp @ 188 rdata unlocked 
DEBUG 2015-12-11T19:09:08.092 src/modbusmaster.cpp @ 191 thread wakeup 
DEBUG 2015-12-11T19:09:08.092 src/pagewidget.cpp @ 208 End Get periodical parameters ------- 
DEBUG 2015-12-11T19:09:08.101 src/modbusmaster.cpp @ 327 Set slave 51 
 INFO 2015-12-11T19:09:08.101 src/modbusmaster.cpp @ 219 Tx Data :  "33  03  00  18  00  08  c0  19  " 
 INFO 2015-12-11T19:09:08.141 src/modbusmaster.cpp @ 231 Rx Data :  "33  03  10  00  25  00  00  dc  ac  1d  fd  04  00  00  00  00  00  00  00  15  0a  " 
DEBUG 2015-12-11T19:09:08.151 src/usodevice.cpp @ 406 Read parameter slot known slave  
DEBUG 2015-12-11T19:09:08.151 src/usodevice.cpp @ 409 Read parameter slot, known address  "0x30" 
DEBUG 2015-12-11T19:09:08.161 src/modbusmaster.cpp @ 327 Set slave 51 
 INFO 2015-12-11T19:09:08.161 src/modbusmaster.cpp @ 219 Tx Data :  "33  03  0b  5c  00  0a  03  e9  " 
 INFO 2015-12-11T19:09:08.206 src/modbusmaster.cpp @ 231 Rx Data :  "33  03  14  00  02  04  00  20  00  00  00  00  16  00  00  02  00  00  00  00  00  00  00  87  cb  " 
DEBUG 2015-12-11T19:09:08.216 src/usodevice.cpp @ 406 Read parameter slot known slave  
DEBUG 2015-12-11T19:09:08.216 src/usodevice.cpp @ 409 Read parameter slot, known address  "0x16b8" 
DEBUG 2015-12-11T19:09:08.226 src/modbusmaster.cpp @ 327 Set slave 51 
 INFO 2015-12-11T19:09:08.226 src/modbusmaster.cpp @ 219 Tx Data :  "33  03  01  26  00  08  a0  29  " 
 INFO 2015-12-11T19:09:08.266 src/modbusmaster.cpp @ 231 Rx Data :  "33  03  10  00  00  00  00  00  00  00  00  00  00  00  00  00  00  00  00  d2  e5  " 
DEBUG 2015-12-11T19:09:08.276 src/usodevice.cpp @ 406 Read parameter slot known slave  
DEBUG 2015-12-11T19:09:08.276 src/usodevice.cpp @ 409 Read parameter slot, known address  "0x24c" 
DEBUG 2015-12-11T19:09:08.276 src/usodevice.cpp @ 422 Sensor updte flags emit 
DEBUG 2015-12-11T19:09:08.276 src/pagewidget.cpp @ 180 Update sensor flags 
DEBUG 2015-12-11T19:09:08.277 src/pagewidget.cpp @ 185 Sensor flags  0   0   0   0 
DEBUG 2015-12-11T19:09:08.277 src/usodevice.cpp @ 330 Set command 3492 
DEBUG 2015-12-11T19:09:08.277 src/parameters/modbusparameter.cpp @ 334 Set value "0100" 
DEBUG 2015-12-11T19:09:08.277 src/modbusmaster.cpp @ 160 writedw 
DEBUG 2015-12-11T19:09:08.277 src/modbusmaster.cpp @ 143 w_waiter unlock 
DEBUG 2015-12-11T19:09:08.277 src/modbusmaster.cpp @ 145 wdata locked 
DEBUG 2015-12-11T19:09:08.277 src/modbusmaster.cpp @ 149 wdata unlocked 
DEBUG 2015-12-11T19:09:08.277 src/modbusmaster.cpp @ 152 thread wakeup 
 INFO 2015-12-11T19:09:08.286 src/modbusmaster.cpp @ 219 Tx Data :  "33  10  0d  a4  00  01  02  00  01  ef  15  " 
 INFO 2015-12-11T19:09:08.312 src/modbusmaster.cpp @ 231 Rx Data :  "33  10  0d  a4  00  01  46  94  " 
DEBUG 2015-12-11T19:09:09.091 src/pagewidget.cpp @ 203 Start Get periodical parameters ------- 
DEBUG 2015-12-11T19:09:09.091 src/modbusmaster.cpp @ 179 read 
DEBUG 2015-12-11T19:09:09.091 src/modbusmaster.cpp @ 182 waiter unlock 
DEBUG 2015-12-11T19:09:09.091 src/modbusmaster.cpp @ 184 rdata locked 
DEBUG 2015-12-11T19:09:09.091 src/modbusmaster.cpp @ 188 rdata unlocked 
DEBUG 2015-12-11T19:09:09.091 src/modbusmaster.cpp @ 191 thread wakeup 
DEBUG 2015-12-11T19:09:09.091 src/modbusmaster.cpp @ 179 read 
DEBUG 2015-12-11T19:09:09.091 src/modbusmaster.cpp @ 182 waiter unlock 
DEBUG 2015-12-11T19:09:09.091 src/modbusmaster.cpp @ 184 rdata locked 
DEBUG 2015-12-11T19:09:09.091 src/modbusmaster.cpp @ 188 rdata unlocked 
DEBUG 2015-12-11T19:09:09.091 src/modbusmaster.cpp @ 191 thread wakeup 
DEBUG 2015-12-11T19:09:09.091 src/modbusmaster.cpp @ 179 read 
DEBUG 2015-12-11T19:09:09.091 src/modbusmaster.cpp @ 182 waiter unlock 
DEBUG 2015-12-11T19:09:09.091 src/modbusmaster.cpp @ 184 rdata locked 
DEBUG 2015-12-11T19:09:09.091 src/modbusmaster.cpp @ 188 rdata unlocked 
DEBUG 2015-12-11T19:09:09.091 src/modbusmaster.cpp @ 191 thread wakeup 
DEBUG 2015-12-11T19:09:09.091 src/pagewidget.cpp @ 208 End Get periodical parameters ------- 
DEBUG 2015-12-11T19:09:09.097 src/modbusmaster.cpp @ 327 Set slave 51 
 INFO 2015-12-11T19:09:09.098 src/modbusmaster.cpp @ 219 Tx Data :  "33  03  00  18  00  08  c0  19  " 
 INFO 2015-12-11T19:09:09.138 src/modbusmaster.cpp @ 231 Rx Data :  "33  03  10  00  22  00  00  dc  ad  1d  fd  04  00  00  00  00  00  00  00  56  f4  " 
DEBUG 2015-12-11T19:09:09.148 src/usodevice.cpp @ 406 Read parameter slot known slave  
DEBUG 2015-12-11T19:09:09.148 src/usodevice.cpp @ 409 Read parameter slot, known address  "0x30" 
DEBUG 2015-12-11T19:09:09.158 src/modbusmaster.cpp @ 327 Set slave 51 
 INFO 2015-12-11T19:09:09.158 src/modbusmaster.cpp @ 219 Tx Data :  "33  03  0b  5c  00  0a  03  e9  " 
 INFO 2015-12-11T19:09:09.202 src/modbusmaster.cpp @ 231 Rx Data :  "33  03  14  00  02  04  00  20  00  00  00  00  16  00  00  02  00  00  00  00  00  00  00  87  cb  " 
DEBUG 2015-12-11T19:09:09.213 src/usodevice.cpp @ 406 Read parameter slot known slave  
DEBUG 2015-12-11T19:09:09.213 src/usodevice.cpp @ 409 Read parameter slot, known address  "0x16b8" 
DEBUG 2015-12-11T19:09:09.223 src/modbusmaster.cpp @ 327 Set slave 51 
 INFO 2015-12-11T19:09:09.223 src/modbusmaster.cpp @ 219 Tx Data :  "33  03  01  26  00  08  a0  29  " 
 INFO 2015-12-11T19:09:09.263 src/modbusmaster.cpp @ 231 Rx Data :  "33  03  10  00  00  00  00  00  00  00  00  00  00  00  00  00  00  00  00  d2  e5  " 
DEBUG 2015-12-11T19:09:09.273 src/usodevice.cpp @ 406 Read parameter slot known slave  
DEBUG 2015-12-11T19:09:09.273 src/usodevice.cpp @ 409 Read parameter slot, known address  "0x24c" 
DEBUG 2015-12-11T19:09:09.273 src/usodevice.cpp @ 422 Sensor updte flags emit 
DEBUG 2015-12-11T19:09:09.273 src/pagewidget.cpp @ 180 Update sensor flags 
DEBUG 2015-12-11T19:09:09.273 src/pagewidget.cpp @ 185 Sensor flags  0   0   0   0 
DEBUG 2015-12-11T19:09:09.273 src/usodevice.cpp @ 330 Set command 3492 
DEBUG 2015-12-11T19:09:09.273 src/parameters/modbusparameter.cpp @ 334 Set value "0100" 
DEBUG 2015-12-11T19:09:09.273 src/modbusmaster.cpp @ 160 writedw 
DEBUG 2015-12-11T19:09:09.273 src/modbusmaster.cpp @ 143 w_waiter unlock 
DEBUG 2015-12-11T19:09:09.274 src/modbusmaster.cpp @ 145 wdata locked 
DEBUG 2015-12-11T19:09:09.274 src/modbusmaster.cpp @ 149 wdata unlocked 
DEBUG 2015-12-11T19:09:09.274 src/modbusmaster.cpp @ 152 thread wakeup 
 INFO 2015-12-11T19:09:09.283 src/modbusmaster.cpp @ 219 Tx Data :  "33  10  0d  a4  00  01  02  00  01  ef  15  " 
 INFO 2015-12-11T19:09:09.308 src/modbusmaster.cpp @ 231 Rx Data :  "33  10  0d  a4  00  01  46  94  " 
DEBUG 2015-12-11T19:09:10.091 src/pagewidget.cpp @ 203 Start Get periodical parameters ------- 
DEBUG 2015-12-11T19:09:10.091 src/modbusmaster.cpp @ 179 read 
DEBUG 2015-12-11T19:09:10.091 src/modbusmaster.cpp @ 182 waiter unlock 
DEBUG 2015-12-11T19:09:10.091 src/modbusmaster.cpp @ 184 rdata locked 
DEBUG 2015-12-11T19:09:10.091 src/modbusmaster.cpp @ 188 rdata unlocked 
DEBUG 2015-12-11T19:09:10.091 src/modbusmaster.cpp @ 191 thread wakeup 
DEBUG 2015-12-11T19:09:10.091 src/modbusmaster.cpp @ 179 read 
DEBUG 2015-12-11T19:09:10.091 src/modbusmaster.cpp @ 182 waiter unlock 
DEBUG 2015-12-11T19:09:10.091 src/modbusmaster.cpp @ 184 rdata locked 
DEBUG 2015-12-11T19:09:10.091 src/modbusmaster.cpp @ 188 rdata unlocked 
DEBUG 2015-12-11T19:09:10.091 src/modbusmaster.cpp @ 191 thread wakeup 
DEBUG 2015-12-11T19:09:10.091 src/modbusmaster.cpp @ 179 read 
DEBUG 2015-12-11T19:09:10.091 src/modbusmaster.cpp @ 182 waiter unlock 
DEBUG 2015-12-11T19:09:10.091 src/modbusmaster.cpp @ 184 rdata locked 
DEBUG 2015-12-11T19:09:10.091 src/modbusmaster.cpp @ 188 rdata unlocked 
DEBUG 2015-12-11T19:09:10.091 src/modbusmaster.cpp @ 191 thread wakeup 
DEBUG 2015-12-11T19:09:10.091 src/pagewidget.cpp @ 208 End Get periodical parameters ------- 
DEBUG 2015-12-11T19:09:10.094 src/modbusmaster.cpp @ 327 Set slave 51 
 INFO 2015-12-11T19:09:10.094 src/modbusmaster.cpp @ 219 Tx Data :  "33  03  00  18  00  08  c0  19  " 
 INFO 2015-12-11T19:09:10.134 src/modbusmaster.cpp @ 231 Rx Data :  "33  03  10  00  1e  00  00  dc  ae  1d  fd  04  00  00  00  00  00  00  00  65  a1  " 
DEBUG 2015-12-11T19:09:10.144 src/usodevice.cpp @ 406 Read parameter slot known slave  
DEBUG 2015-12-11T19:09:10.145 src/usodevice.cpp @ 409 Read parameter slot, known address  "0x30" 
DEBUG 2015-12-11T19:09:10.154 src/modbusmaster.cpp @ 327 Set slave 51 
 INFO 2015-12-11T19:09:10.155 src/modbusmaster.cpp @ 219 Tx Data :  "33  03  0b  5c  00  0a  03  e9  " 
 INFO 2015-12-11T19:09:10.199 src/modbusmaster.cpp @ 231 Rx Data :  "33  03  14  00  02  04  00  20  00  00  00  00  16  00  00  02  00  00  00  00  00  00  00  87  cb  " 
DEBUG 2015-12-11T19:09:10.209 src/usodevice.cpp @ 406 Read parameter slot known slave  
DEBUG 2015-12-11T19:09:10.209 src/usodevice.cpp @ 409 Read parameter slot, known address  "0x16b8" 
DEBUG 2015-12-11T19:09:10.219 src/modbusmaster.cpp @ 327 Set slave 51 
 INFO 2015-12-11T19:09:10.219 src/modbusmaster.cpp @ 219 Tx Data :  "33  03  01  26  00  08  a0  29  " 
 INFO 2015-12-11T19:09:10.259 src/modbusmaster.cpp @ 231 Rx Data :  "33  03  10  00  00  00  00  00  00  00  00  00  00  00  00  00  00  00  00  d2  e5  " 
DEBUG 2015-12-11T19:09:10.270 src/usodevice.cpp @ 406 Read parameter slot known slave  
DEBUG 2015-12-11T19:09:10.270 src/usodevice.cpp @ 409 Read parameter slot, known address  "0x24c" 
DEBUG 2015-12-11T19:09:10.270 src/usodevice.cpp @ 422 Sensor updte flags emit 
DEBUG 2015-12-11T19:09:10.270 src/pagewidget.cpp @ 180 Update sensor flags 
DEBUG 2015-12-11T19:09:10.270 src/pagewidget.cpp @ 185 Sensor flags  0   0   0   0 
DEBUG 2015-12-11T19:09:10.270 src/usodevice.cpp @ 330 Set command 3492 
DEBUG 2015-12-11T19:09:10.270 src/parameters/modbusparameter.cpp @ 334 Set value "0100" 
DEBUG 2015-12-11T19:09:10.270 src/modbusmaster.cpp @ 160 writedw 
DEBUG 2015-12-11T19:09:10.270 src/modbusmaster.cpp @ 143 w_waiter unlock 
DEBUG 2015-12-11T19:09:10.270 src/modbusmaster.cpp @ 145 wdata locked 
DEBUG 2015-12-11T19:09:10.270 src/modbusmaster.cpp @ 149 wdata unlocked 
DEBUG 2015-12-11T19:09:10.270 src/modbusmaster.cpp @ 152 thread wakeup 
 INFO 2015-12-11T19:09:10.280 src/modbusmaster.cpp @ 219 Tx Data :  "33  10  0d  a4  00  01  02  00  01  ef  15  " 
 INFO 2015-12-11T19:09:10.305 src/modbusmaster.cpp @ 231 Rx Data :  "33  10  0d  a4  00  01  46  94  " 
DEBUG 2015-12-11T19:09:11.091 src/pagewidget.cpp @ 203 Start Get periodical parameters ------- 
DEBUG 2015-12-11T19:09:11.091 src/modbusmaster.cpp @ 179 read 
DEBUG 2015-12-11T19:09:11.091 src/modbusmaster.cpp @ 182 waiter unlock 
DEBUG 2015-12-11T19:09:11.091 src/modbusmaster.cpp @ 184 rdata locked 
DEBUG 2015-12-11T19:09:11.091 src/modbusmaster.cpp @ 188 rdata unlocked 
DEBUG 2015-12-11T19:09:11.091 src/modbusmaster.cpp @ 191 thread wakeup 
DEBUG 2015-12-11T19:09:11.091 src/modbusmaster.cpp @ 179 read 
DEBUG 2015-12-11T19:09:11.091 src/modbusmaster.cpp @ 182 waiter unlock 
DEBUG 2015-12-11T19:09:11.091 src/modbusmaster.cpp @ 184 rdata locked 
DEBUG 2015-12-11T19:09:11.091 src/modbusmaster.cpp @ 188 rdata unlocked 
DEBUG 2015-12-11T19:09:11.091 src/modbusmaster.cpp @ 191 thread wakeup 
DEBUG 2015-12-11T19:09:11.091 src/modbusmaster.cpp @ 179 read 
DEBUG 2015-12-11T19:09:11.091 src/modbusmaster.cpp @ 182 waiter unlock 
DEBUG 2015-12-11T19:09:11.091 src/modbusmaster.cpp @ 184 rdata locked 
DEBUG 2015-12-11T19:09:11.091 src/modbusmaster.cpp @ 188 rdata unlocked 
DEBUG 2015-12-11T19:09:11.091 src/modbusmaster.cpp @ 191 thread wakeup 
DEBUG 2015-12-11T19:09:11.091 src/pagewidget.cpp @ 208 End Get periodical parameters ------- 
DEBUG 2015-12-11T19:09:11.101 src/modbusmaster.cpp @ 327 Set slave 51 
 INFO 2015-12-11T19:09:11.101 src/modbusmaster.cpp @ 219 Tx Data :  "33  03  00  18  00  08  c0  19  " 
 INFO 2015-12-11T19:09:11.141 src/modbusmaster.cpp @ 231 Rx Data :  "33  03  10  00  25  00  00  dc  af  1d  fd  04  00  00  00  00  00  00  00  1a  4e  " 
DEBUG 2015-12-11T19:09:11.151 src/usodevice.cpp @ 406 Read parameter slot known slave  
DEBUG 2015-12-11T19:09:11.151 src/usodevice.cpp @ 409 Read parameter slot, known address  "0x30" 
DEBUG 2015-12-11T19:09:11.161 src/modbusmaster.cpp @ 327 Set slave 51 
 INFO 2015-12-11T19:09:11.161 src/modbusmaster.cpp @ 219 Tx Data :  "33  03  0b  5c  00  0a  03  e9  " 
 INFO 2015-12-11T19:09:11.205 src/modbusmaster.cpp @ 231 Rx Data :  "33  03  14  00  02  04  00  20  00  00  00  00  16  00  00  02  00  00  00  00  00  00  00  87  cb  " 
DEBUG 2015-12-11T19:09:11.216 src/usodevice.cpp @ 406 Read parameter slot known slave  
DEBUG 2015-12-11T19:09:11.216 src/usodevice.cpp @ 409 Read parameter slot, known address  "0x16b8" 
DEBUG 2015-12-11T19:09:11.226 src/modbusmaster.cpp @ 327 Set slave 51 
 INFO 2015-12-11T19:09:11.226 src/modbusmaster.cpp @ 219 Tx Data :  "33  03  01  26  00  08  a0  29  " 
 INFO 2015-12-11T19:09:11.266 src/modbusmaster.cpp @ 231 Rx Data :  "33  03  10  00  00  00  00  00  00  00  00  00  00  00  00  00  00  00  00  d2  e5  " 
DEBUG 2015-12-11T19:09:11.276 src/usodevice.cpp @ 406 Read parameter slot known slave  
DEBUG 2015-12-11T19:09:11.276 src/usodevice.cpp @ 409 Read parameter slot, known address  "0x24c" 
DEBUG 2015-12-11T19:09:11.276 src/usodevice.cpp @ 422 Sensor updte flags emit 
DEBUG 2015-12-11T19:09:11.276 src/pagewidget.cpp @ 180 Update sensor flags 
DEBUG 2015-12-11T19:09:11.276 src/pagewidget.cpp @ 185 Sensor flags  0   0   0   0 
DEBUG 2015-12-11T19:09:11.276 src/usodevice.cpp @ 330 Set command 3492 
DEBUG 2015-12-11T19:09:11.276 src/parameters/modbusparameter.cpp @ 334 Set value "0100" 
DEBUG 2015-12-11T19:09:11.276 src/modbusmaster.cpp @ 160 writedw 
DEBUG 2015-12-11T19:09:11.276 src/modbusmaster.cpp @ 143 w_waiter unlock 
DEBUG 2015-12-11T19:09:11.276 src/modbusmaster.cpp @ 145 wdata locked 
DEBUG 2015-12-11T19:09:11.276 src/modbusmaster.cpp @ 149 wdata unlocked 
DEBUG 2015-12-11T19:09:11.276 src/modbusmaster.cpp @ 152 thread wakeup 
 INFO 2015-12-11T19:09:11.286 src/modbusmaster.cpp @ 219 Tx Data :  "33  10  0d  a4  00  01  02  00  01  ef  15  " 
 INFO 2015-12-11T19:09:11.311 src/modbusmaster.cpp @ 231 Rx Data :  "33  10  0d  a4  00  01  46  94  " 
DEBUG 2015-12-11T19:09:12.091 src/pagewidget.cpp @ 203 Start Get periodical parameters ------- 
DEBUG 2015-12-11T19:09:12.091 src/modbusmaster.cpp @ 179 read 
DEBUG 2015-12-11T19:09:12.091 src/modbusmaster.cpp @ 182 waiter unlock 
DEBUG 2015-12-11T19:09:12.091 src/modbusmaster.cpp @ 184 rdata locked 
DEBUG 2015-12-11T19:09:12.091 src/modbusmaster.cpp @ 188 rdata unlocked 
DEBUG 2015-12-11T19:09:12.091 src/modbusmaster.cpp @ 191 thread wakeup 
DEBUG 2015-12-11T19:09:12.091 src/modbusmaster.cpp @ 179 read 
DEBUG 2015-12-11T19:09:12.091 src/modbusmaster.cpp @ 182 waiter unlock 
DEBUG 2015-12-11T19:09:12.091 src/modbusmaster.cpp @ 184 rdata locked 
DEBUG 2015-12-11T19:09:12.091 src/modbusmaster.cpp @ 188 rdata unlocked 
DEBUG 2015-12-11T19:09:12.091 src/modbusmaster.cpp @ 191 thread wakeup 
DEBUG 2015-12-11T19:09:12.091 src/modbusmaster.cpp @ 179 read 
DEBUG 2015-12-11T19:09:12.091 src/modbusmaster.cpp @ 182 waiter unlock 
DEBUG 2015-12-11T19:09:12.091 src/modbusmaster.cpp @ 184 rdata locked 
DEBUG 2015-12-11T19:09:12.091 src/modbusmaster.cpp @ 188 rdata unlocked 
DEBUG 2015-12-11T19:09:12.091 src/modbusmaster.cpp @ 191 thread wakeup 
DEBUG 2015-12-11T19:09:12.091 src/pagewidget.cpp @ 208 End Get periodical parameters ------- 
DEBUG 2015-12-11T19:09:12.097 src/modbusmaster.cpp @ 327 Set slave 51 
 INFO 2015-12-11T19:09:12.097 src/modbusmaster.cpp @ 219 Tx Data :  "33  03  00  18  00  08  c0  19  " 
 INFO 2015-12-11T19:09:12.137 src/modbusmaster.cpp @ 231 Rx Data :  "33  03  10  00  21  00  00  dc  b0  1d  fd  04  00  00  00  00  00  00  00  7a  99  " 
DEBUG 2015-12-11T19:09:12.148 src/usodevice.cpp @ 406 Read parameter slot known slave  
DEBUG 2015-12-11T19:09:12.148 src/usodevice.cpp @ 409 Read parameter slot, known address  "0x30" 
DEBUG 2015-12-11T19:09:12.158 src/modbusmaster.cpp @ 327 Set slave 51 
 INFO 2015-12-11T19:09:12.158 src/modbusmaster.cpp @ 219 Tx Data :  "33  03  0b  5c  00  0a  03  e9  " 
 INFO 2015-12-11T19:09:12.202 src/modbusmaster.cpp @ 231 Rx Data :  "33  03  14  00  02  04  00  20  00  00  00  00  16  00  00  02  00  00  00  00  00  00  00  87  cb  " 
DEBUG 2015-12-11T19:09:12.212 src/usodevice.cpp @ 406 Read parameter slot known slave  
DEBUG 2015-12-11T19:09:12.212 src/usodevice.cpp @ 409 Read parameter slot, known address  "0x16b8" 
DEBUG 2015-12-11T19:09:12.222 src/modbusmaster.cpp @ 327 Set slave 51 
 INFO 2015-12-11T19:09:12.222 src/modbusmaster.cpp @ 219 Tx Data :  "33  03  01  26  00  08  a0  29  " 
 INFO 2015-12-11T19:09:12.262 src/modbusmaster.cpp @ 231 Rx Data :  "33  03  10  00  00  00  00  00  00  00  00  00  00  00  00  00  00  00  00  d2  e5  " 
DEBUG 2015-12-11T19:09:12.273 src/usodevice.cpp @ 406 Read parameter slot known slave  
DEBUG 2015-12-11T19:09:12.273 src/usodevice.cpp @ 409 Read parameter slot, known address  "0x24c" 
DEBUG 2015-12-11T19:09:12.273 src/usodevice.cpp @ 422 Sensor updte flags emit 
DEBUG 2015-12-11T19:09:12.273 src/pagewidget.cpp @ 180 Update sensor flags 
DEBUG 2015-12-11T19:09:12.273 src/pagewidget.cpp @ 185 Sensor flags  0   0   0   0 
DEBUG 2015-12-11T19:09:12.273 src/usodevice.cpp @ 330 Set command 3492 
DEBUG 2015-12-11T19:09:12.273 src/parameters/modbusparameter.cpp @ 334 Set value "0100" 
DEBUG 2015-12-11T19:09:12.273 src/modbusmaster.cpp @ 160 writedw 
DEBUG 2015-12-11T19:09:12.273 src/modbusmaster.cpp @ 143 w_waiter unlock 
DEBUG 2015-12-11T19:09:12.273 src/modbusmaster.cpp @ 145 wdata locked 
DEBUG 2015-12-11T19:09:12.273 src/modbusmaster.cpp @ 149 wdata unlocked 
DEBUG 2015-12-11T19:09:12.273 src/modbusmaster.cpp @ 152 thread wakeup 
 INFO 2015-12-11T19:09:12.283 src/modbusmaster.cpp @ 219 Tx Data :  "33  10  0d  a4  00  01  02  00  01  ef  15  " 
 INFO 2015-12-11T19:09:12.308 src/modbusmaster.cpp @ 231 Rx Data :  "33  10  0d  a4  00  01  46  94  " 
DEBUG 2015-12-11T19:09:13.091 src/pagewidget.cpp @ 203 Start Get periodical parameters ------- 
DEBUG 2015-12-11T19:09:13.091 src/modbusmaster.cpp @ 179 read 
DEBUG 2015-12-11T19:09:13.092 src/modbusmaster.cpp @ 182 waiter unlock 
DEBUG 2015-12-11T19:09:13.092 src/modbusmaster.cpp @ 184 rdata locked 
DEBUG 2015-12-11T19:09:13.092 src/modbusmaster.cpp @ 188 rdata unlocked 
DEBUG 2015-12-11T19:09:13.092 src/modbusmaster.cpp @ 191 thread wakeup 
DEBUG 2015-12-11T19:09:13.092 src/modbusmaster.cpp @ 179 read 
DEBUG 2015-12-11T19:09:13.092 src/modbusmaster.cpp @ 182 waiter unlock 
DEBUG 2015-12-11T19:09:13.092 src/modbusmaster.cpp @ 184 rdata locked 
DEBUG 2015-12-11T19:09:13.092 src/modbusmaster.cpp @ 188 rdata unlocked 
DEBUG 2015-12-11T19:09:13.092 src/modbusmaster.cpp @ 191 thread wakeup 
DEBUG 2015-12-11T19:09:13.092 src/modbusmaster.cpp @ 179 read 
DEBUG 2015-12-11T19:09:13.092 src/modbusmaster.cpp @ 182 waiter unlock 
DEBUG 2015-12-11T19:09:13.092 src/modbusmaster.cpp @ 184 rdata locked 
DEBUG 2015-12-11T19:09:13.092 src/modbusmaster.cpp @ 188 rdata unlocked 
DEBUG 2015-12-11T19:09:13.092 src/modbusmaster.cpp @ 191 thread wakeup 
DEBUG 2015-12-11T19:09:13.092 src/pagewidget.cpp @ 208 End Get periodical parameters ------- 
DEBUG 2015-12-11T19:09:13.094 src/modbusmaster.cpp @ 327 Set slave 51 
 INFO 2015-12-11T19:09:13.094 src/modbusmaster.cpp @ 219 Tx Data :  "33  03  00  18  00  08  c0  19  " 
 INFO 2015-12-11T19:09:13.134 src/modbusmaster.cpp @ 231 Rx Data :  "33  03  10  00  1e  00  00  dc  b1  1d  fd  04  00  00  00  00  00  00  00  01  75  " 
DEBUG 2015-12-11T19:09:13.144 src/usodevice.cpp @ 406 Read parameter slot known slave  
DEBUG 2015-12-11T19:09:13.144 src/usodevice.cpp @ 409 Read parameter slot, known address  "0x30" 
DEBUG 2015-12-11T19:09:13.154 src/modbusmaster.cpp @ 327 Set slave 51 
 INFO 2015-12-11T19:09:13.154 src/modbusmaster.cpp @ 219 Tx Data :  "33  03  0b  5c  00  0a  03  e9  " 
 INFO 2015-12-11T19:09:13.198 src/modbusmaster.cpp @ 231 Rx Data :  "33  03  14  00  02  04  00  20  00  00  00  00  16  00  00  02  00  00  00  00  00  00  00  87  cb  " 
DEBUG 2015-12-11T19:09:13.209 src/usodevice.cpp @ 406 Read parameter slot known slave  
DEBUG 2015-12-11T19:09:13.209 src/usodevice.cpp @ 409 Read parameter slot, known address  "0x16b8" 
DEBUG 2015-12-11T19:09:13.219 src/modbusmaster.cpp @ 327 Set slave 51 
 INFO 2015-12-11T19:09:13.219 src/modbusmaster.cpp @ 219 Tx Data :  "33  03  01  26  00  08  a0  29  " 
 INFO 2015-12-11T19:09:13.259 src/modbusmaster.cpp @ 231 Rx Data :  "33  03  10  00  00  00  00  00  00  00  00  00  00  00  00  00  00  00  00  d2  e5  " 
DEBUG 2015-12-11T19:09:13.269 src/usodevice.cpp @ 406 Read parameter slot known slave  
DEBUG 2015-12-11T19:09:13.269 src/usodevice.cpp @ 409 Read parameter slot, known address  "0x24c" 
DEBUG 2015-12-11T19:09:13.269 src/usodevice.cpp @ 422 Sensor updte flags emit 
DEBUG 2015-12-11T19:09:13.269 src/pagewidget.cpp @ 180 Update sensor flags 
DEBUG 2015-12-11T19:09:13.269 src/pagewidget.cpp @ 185 Sensor flags  0   0   0   0 
DEBUG 2015-12-11T19:09:13.269 src/usodevice.cpp @ 330 Set command 3492 
DEBUG 2015-12-11T19:09:13.269 src/parameters/modbusparameter.cpp @ 334 Set value "0100" 
DEBUG 2015-12-11T19:09:13.269 src/modbusmaster.cpp @ 160 writedw 
DEBUG 2015-12-11T19:09:13.269 src/modbusmaster.cpp @ 143 w_waiter unlock 
DEBUG 2015-12-11T19:09:13.269 src/modbusmaster.cpp @ 145 wdata locked 
DEBUG 2015-12-11T19:09:13.269 src/modbusmaster.cpp @ 149 wdata unlocked 
DEBUG 2015-12-11T19:09:13.270 src/modbusmaster.cpp @ 152 thread wakeup 
 INFO 2015-12-11T19:09:13.279 src/modbusmaster.cpp @ 219 Tx Data :  "33  10  0d  a4  00  01  02  00  01  ef  15  " 
 INFO 2015-12-11T19:09:13.304 src/modbusmaster.cpp @ 231 Rx Data :  "33  10  0d  a4  00  01  46  94  " 
DEBUG 2015-12-11T19:09:14.090 src/pagewidget.cpp @ 203 Start Get periodical parameters ------- 
DEBUG 2015-12-11T19:09:14.090 src/modbusmaster.cpp @ 179 read 
DEBUG 2015-12-11T19:09:14.090 src/modbusmaster.cpp @ 182 waiter unlock 
DEBUG 2015-12-11T19:09:14.090 src/modbusmaster.cpp @ 184 rdata locked 
DEBUG 2015-12-11T19:09:14.090 src/modbusmaster.cpp @ 188 rdata unlocked 
DEBUG 2015-12-11T19:09:14.090 src/modbusmaster.cpp @ 191 thread wakeup 
DEBUG 2015-12-11T19:09:14.090 src/modbusmaster.cpp @ 179 read 
DEBUG 2015-12-11T19:09:14.090 src/modbusmaster.cpp @ 182 waiter unlock 
DEBUG 2015-12-11T19:09:14.090 src/modbusmaster.cpp @ 184 rdata locked 
DEBUG 2015-12-11T19:09:14.090 src/modbusmaster.cpp @ 188 rdata unlocked 
DEBUG 2015-12-11T19:09:14.091 src/modbusmaster.cpp @ 191 thread wakeup 
DEBUG 2015-12-11T19:09:14.091 src/modbusmaster.cpp @ 179 read 
DEBUG 2015-12-11T19:09:14.091 src/modbusmaster.cpp @ 182 waiter unlock 
DEBUG 2015-12-11T19:09:14.091 src/modbusmaster.cpp @ 184 rdata locked 
DEBUG 2015-12-11T19:09:14.091 src/modbusmaster.cpp @ 188 rdata unlocked 
DEBUG 2015-12-11T19:09:14.091 src/modbusmaster.cpp @ 191 thread wakeup 
DEBUG 2015-12-11T19:09:14.091 src/pagewidget.cpp @ 208 End Get periodical parameters ------- 
DEBUG 2015-12-11T19:09:14.100 src/modbusmaster.cpp @ 327 Set slave 51 
 INFO 2015-12-11T19:09:14.100 src/modbusmaster.cpp @ 219 Tx Data :  "33  03  00  18  00  08  c0  19  " 
 INFO 2015-12-11T19:09:14.140 src/modbusmaster.cpp @ 231 Rx Data :  "33  03  10  00  25  00  00  dc  b2  1d  fd  04  00  00  00  00  00  00  00  75  22  " 
DEBUG 2015-12-11T19:09:14.150 src/usodevice.cpp @ 406 Read parameter slot known slave  
DEBUG 2015-12-11T19:09:14.151 src/usodevice.cpp @ 409 Read parameter slot, known address  "0x30" 
DEBUG 2015-12-11T19:09:14.161 src/modbusmaster.cpp @ 327 Set slave 51 
 INFO 2015-12-11T19:09:14.161 src/modbusmaster.cpp @ 219 Tx Data :  "33  03  0b  5c  00  0a  03  e9  " 
 INFO 2015-12-11T19:09:14.205 src/modbusmaster.cpp @ 231 Rx Data :  "33  03  14  00  02  04  00  20  00  00  00  00  16  00  00  02  00  00  00  00  00  00  00  87  cb  " 
DEBUG 2015-12-11T19:09:14.215 src/usodevice.cpp @ 406 Read parameter slot known slave  
DEBUG 2015-12-11T19:09:14.215 src/usodevice.cpp @ 409 Read parameter slot, known address  "0x16b8" 
DEBUG 2015-12-11T19:09:14.225 src/modbusmaster.cpp @ 327 Set slave 51 
 INFO 2015-12-11T19:09:14.225 src/modbusmaster.cpp @ 219 Tx Data :  "33  03  01  26  00  08  a0  29  " 
