 INFO 2015-12-11T19:09:14.265 src/modbusmaster.cpp @ 231 Rx Data :  "33  03  10  00  00  00  00  00  00  00  00  00  00  00  00  00  00  00  00  d2  e5  " 
DEBUG 2015-12-11T19:09:14.276 src/usodevice.cpp @ 406 Read parameter slot known slave  
DEBUG 2015-12-11T19:09:14.276 src/usodevice.cpp @ 409 Read parameter slot, known address  "0x24c" 
DEBUG 2015-12-11T19:09:14.276 src/usodevice.cpp @ 422 Sensor updte flags emit 
DEBUG 2015-12-11T19:09:14.276 src/pagewidget.cpp @ 180 Update sensor flags 
DEBUG 2015-12-11T19:09:14.276 src/pagewidget.cpp @ 185 Sensor flags  0   0   0   0 
DEBUG 2015-12-11T19:09:14.276 src/usodevice.cpp @ 330 Set command 3492 
DEBUG 2015-12-11T19:09:14.276 src/parameters/modbusparameter.cpp @ 334 Set value "0100" 
DEBUG 2015-12-11T19:09:14.276 src/modbusmaster.cpp @ 160 writedw 
DEBUG 2015-12-11T19:09:14.276 src/modbusmaster.cpp @ 143 w_waiter unlock 
DEBUG 2015-12-11T19:09:14.276 src/modbusmaster.cpp @ 145 wdata locked 
DEBUG 2015-12-11T19:09:14.276 src/modbusmaster.cpp @ 149 wdata unlocked 
DEBUG 2015-12-11T19:09:14.276 src/modbusmaster.cpp @ 152 thread wakeup 
 INFO 2015-12-11T19:09:14.286 src/modbusmaster.cpp @ 219 Tx Data :  "33  10  0d  a4  00  01  02  00  01  ef  15  " 
 INFO 2015-12-11T19:09:14.311 src/modbusmaster.cpp @ 231 Rx Data :  "33  10  0d  a4  00  01  46  94  " 
DEBUG 2015-12-11T19:09:15.091 src/pagewidget.cpp @ 203 Start Get periodical parameters ------- 
DEBUG 2015-12-11T19:09:15.091 src/modbusmaster.cpp @ 179 read 
DEBUG 2015-12-11T19:09:15.091 src/modbusmaster.cpp @ 182 waiter unlock 
DEBUG 2015-12-11T19:09:15.091 src/modbusmaster.cpp @ 184 rdata locked 
DEBUG 2015-12-11T19:09:15.091 src/modbusmaster.cpp @ 188 rdata unlocked 
DEBUG 2015-12-11T19:09:15.091 src/modbusmaster.cpp @ 191 thread wakeup 
DEBUG 2015-12-11T19:09:15.091 src/modbusmaster.cpp @ 179 read 
DEBUG 2015-12-11T19:09:15.091 src/modbusmaster.cpp @ 182 waiter unlock 
DEBUG 2015-12-11T19:09:15.092 src/modbusmaster.cpp @ 184 rdata locked 
DEBUG 2015-12-11T19:09:15.092 src/modbusmaster.cpp @ 188 rdata unlocked 
DEBUG 2015-12-11T19:09:15.092 src/modbusmaster.cpp @ 191 thread wakeup 
DEBUG 2015-12-11T19:09:15.092 src/modbusmaster.cpp @ 179 read 
DEBUG 2015-12-11T19:09:15.092 src/modbusmaster.cpp @ 182 waiter unlock 
DEBUG 2015-12-11T19:09:15.092 src/modbusmaster.cpp @ 184 rdata locked 
DEBUG 2015-12-11T19:09:15.092 src/modbusmaster.cpp @ 188 rdata unlocked 
DEBUG 2015-12-11T19:09:15.092 src/modbusmaster.cpp @ 191 thread wakeup 
DEBUG 2015-12-11T19:09:15.092 src/pagewidget.cpp @ 208 End Get periodical parameters ------- 
DEBUG 2015-12-11T19:09:15.097 src/modbusmaster.cpp @ 327 Set slave 51 
 INFO 2015-12-11T19:09:15.097 src/modbusmaster.cpp @ 219 Tx Data :  "33  03  00  18  00  08  c0  19  " 
 INFO 2015-12-11T19:09:15.137 src/modbusmaster.cpp @ 231 Rx Data :  "33  03  10  00  21  00  00  dc  b3  1d  fd  04  00  00  00  00  00  00  00  75  dd  " 
DEBUG 2015-12-11T19:09:15.147 src/usodevice.cpp @ 406 Read parameter slot known slave  
DEBUG 2015-12-11T19:09:15.147 src/usodevice.cpp @ 409 Read parameter slot, known address  "0x30" 
DEBUG 2015-12-11T19:09:15.157 src/modbusmaster.cpp @ 327 Set slave 51 
 INFO 2015-12-11T19:09:15.157 src/modbusmaster.cpp @ 219 Tx Data :  "33  03  0b  5c  00  0a  03  e9  " 
 INFO 2015-12-11T19:09:15.201 src/modbusmaster.cpp @ 231 Rx Data :  "33  03  14  00  02  04  00  20  00  00  00  00  16  00  00  02  00  00  00  00  00  00  00  87  cb  " 
DEBUG 2015-12-11T19:09:15.212 src/usodevice.cpp @ 406 Read parameter slot known slave  
DEBUG 2015-12-11T19:09:15.212 src/usodevice.cpp @ 409 Read parameter slot, known address  "0x16b8" 
DEBUG 2015-12-11T19:09:15.222 src/modbusmaster.cpp @ 327 Set slave 51 
 INFO 2015-12-11T19:09:15.222 src/modbusmaster.cpp @ 219 Tx Data :  "33  03  01  26  00  08  a0  29  " 
 INFO 2015-12-11T19:09:15.262 src/modbusmaster.cpp @ 231 Rx Data :  "33  03  10  00  00  00  00  00  00  00  00  00  00  00  00  00  00  00  00  d2  e5  " 
DEBUG 2015-12-11T19:09:15.272 src/usodevice.cpp @ 406 Read parameter slot known slave  
DEBUG 2015-12-11T19:09:15.272 src/usodevice.cpp @ 409 Read parameter slot, known address  "0x24c" 
DEBUG 2015-12-11T19:09:15.272 src/usodevice.cpp @ 422 Sensor updte flags emit 
DEBUG 2015-12-11T19:09:15.272 src/pagewidget.cpp @ 180 Update sensor flags 
DEBUG 2015-12-11T19:09:15.272 src/pagewidget.cpp @ 185 Sensor flags  0   0   0   0 
DEBUG 2015-12-11T19:09:15.272 src/usodevice.cpp @ 330 Set command 3492 
DEBUG 2015-12-11T19:09:15.272 src/parameters/modbusparameter.cpp @ 334 Set value "0100" 
DEBUG 2015-12-11T19:09:15.272 src/modbusmaster.cpp @ 160 writedw 
DEBUG 2015-12-11T19:09:15.272 src/modbusmaster.cpp @ 143 w_waiter unlock 
DEBUG 2015-12-11T19:09:15.272 src/modbusmaster.cpp @ 145 wdata locked 
DEBUG 2015-12-11T19:09:15.272 src/modbusmaster.cpp @ 149 wdata unlocked 
DEBUG 2015-12-11T19:09:15.272 src/modbusmaster.cpp @ 152 thread wakeup 
 INFO 2015-12-11T19:09:15.282 src/modbusmaster.cpp @ 219 Tx Data :  "33  10  0d  a4  00  01  02  00  01  ef  15  " 
 INFO 2015-12-11T19:09:15.308 src/modbusmaster.cpp @ 231 Rx Data :  "33  10  0d  a4  00  01  46  94  " 
DEBUG 2015-12-11T19:09:16.091 src/pagewidget.cpp @ 203 Start Get periodical parameters ------- 
DEBUG 2015-12-11T19:09:16.091 src/modbusmaster.cpp @ 179 read 
DEBUG 2015-12-11T19:09:16.091 src/modbusmaster.cpp @ 182 waiter unlock 
DEBUG 2015-12-11T19:09:16.091 src/modbusmaster.cpp @ 184 rdata locked 
DEBUG 2015-12-11T19:09:16.091 src/modbusmaster.cpp @ 188 rdata unlocked 
DEBUG 2015-12-11T19:09:16.091 src/modbusmaster.cpp @ 191 thread wakeup 
DEBUG 2015-12-11T19:09:16.091 src/modbusmaster.cpp @ 179 read 
DEBUG 2015-12-11T19:09:16.091 src/modbusmaster.cpp @ 182 waiter unlock 
DEBUG 2015-12-11T19:09:16.091 src/modbusmaster.cpp @ 184 rdata locked 
DEBUG 2015-12-11T19:09:16.091 src/modbusmaster.cpp @ 188 rdata unlocked 
DEBUG 2015-12-11T19:09:16.091 src/modbusmaster.cpp @ 191 thread wakeup 
DEBUG 2015-12-11T19:09:16.091 src/modbusmaster.cpp @ 179 read 
DEBUG 2015-12-11T19:09:16.091 src/modbusmaster.cpp @ 182 waiter unlock 
DEBUG 2015-12-11T19:09:16.091 src/modbusmaster.cpp @ 184 rdata locked 
DEBUG 2015-12-11T19:09:16.091 src/modbusmaster.cpp @ 188 rdata unlocked 
DEBUG 2015-12-11T19:09:16.091 src/modbusmaster.cpp @ 191 thread wakeup 
DEBUG 2015-12-11T19:09:16.091 src/pagewidget.cpp @ 208 End Get periodical parameters ------- 
DEBUG 2015-12-11T19:09:16.093 src/modbusmaster.cpp @ 327 Set slave 51 
 INFO 2015-12-11T19:09:16.093 src/modbusmaster.cpp @ 219 Tx Data :  "33  03  00  18  00  08  c0  19  " 
 INFO 2015-12-11T19:09:16.133 src/modbusmaster.cpp @ 231 Rx Data :  "33  03  10  00  1d  00  00  dc  b4  1d  fd  04  00  00  00  00  00  00  00  53  b8  " 
DEBUG 2015-12-11T19:09:16.143 src/usodevice.cpp @ 406 Read parameter slot known slave  
DEBUG 2015-12-11T19:09:16.144 src/usodevice.cpp @ 409 Read parameter slot, known address  "0x30" 
DEBUG 2015-12-11T19:09:16.154 src/modbusmaster.cpp @ 327 Set slave 51 
 INFO 2015-12-11T19:09:16.154 src/modbusmaster.cpp @ 219 Tx Data :  "33  03  0b  5c  00  0a  03  e9  " 
 INFO 2015-12-11T19:09:16.198 src/modbusmaster.cpp @ 231 Rx Data :  "33  03  14  00  02  04  00  20  00  00  00  00  16  00  00  02  00  00  00  00  00  00  00  87  cb  " 
DEBUG 2015-12-11T19:09:16.208 src/usodevice.cpp @ 406 Read parameter slot known slave  
DEBUG 2015-12-11T19:09:16.208 src/usodevice.cpp @ 409 Read parameter slot, known address  "0x16b8" 
DEBUG 2015-12-11T19:09:16.218 src/modbusmaster.cpp @ 327 Set slave 51 
 INFO 2015-12-11T19:09:16.218 src/modbusmaster.cpp @ 219 Tx Data :  "33  03  01  26  00  08  a0  29  " 
 INFO 2015-12-11T19:09:16.258 src/modbusmaster.cpp @ 231 Rx Data :  "33  03  10  00  00  00  00  00  00  00  00  00  00  00  00  00  00  00  00  d2  e5  " 
DEBUG 2015-12-11T19:09:16.269 src/usodevice.cpp @ 406 Read parameter slot known slave  
DEBUG 2015-12-11T19:09:16.269 src/usodevice.cpp @ 409 Read parameter slot, known address  "0x24c" 
DEBUG 2015-12-11T19:09:16.269 src/usodevice.cpp @ 422 Sensor updte flags emit 
DEBUG 2015-12-11T19:09:16.269 src/pagewidget.cpp @ 180 Update sensor flags 
DEBUG 2015-12-11T19:09:16.269 src/pagewidget.cpp @ 185 Sensor flags  0   0   0   0 
DEBUG 2015-12-11T19:09:16.269 src/usodevice.cpp @ 330 Set command 3492 
DEBUG 2015-12-11T19:09:16.269 src/parameters/modbusparameter.cpp @ 334 Set value "0100" 
DEBUG 2015-12-11T19:09:16.269 src/modbusmaster.cpp @ 160 writedw 
DEBUG 2015-12-11T19:09:16.269 src/modbusmaster.cpp @ 143 w_waiter unlock 
DEBUG 2015-12-11T19:09:16.269 src/modbusmaster.cpp @ 145 wdata locked 
DEBUG 2015-12-11T19:09:16.269 src/modbusmaster.cpp @ 149 wdata unlocked 
DEBUG 2015-12-11T19:09:16.269 src/modbusmaster.cpp @ 152 thread wakeup 
 INFO 2015-12-11T19:09:16.279 src/modbusmaster.cpp @ 219 Tx Data :  "33  10  0d  a4  00  01  02  00  01  ef  15  " 
 INFO 2015-12-11T19:09:16.304 src/modbusmaster.cpp @ 231 Rx Data :  "33  10  0d  a4  00  01  46  94  " 
DEBUG 2015-12-11T19:09:17.091 src/pagewidget.cpp @ 203 Start Get periodical parameters ------- 
DEBUG 2015-12-11T19:09:17.091 src/modbusmaster.cpp @ 179 read 
DEBUG 2015-12-11T19:09:17.091 src/modbusmaster.cpp @ 182 waiter unlock 
DEBUG 2015-12-11T19:09:17.091 src/modbusmaster.cpp @ 184 rdata locked 
DEBUG 2015-12-11T19:09:17.091 src/modbusmaster.cpp @ 188 rdata unlocked 
DEBUG 2015-12-11T19:09:17.091 src/modbusmaster.cpp @ 191 thread wakeup 
DEBUG 2015-12-11T19:09:17.091 src/modbusmaster.cpp @ 179 read 
DEBUG 2015-12-11T19:09:17.091 src/modbusmaster.cpp @ 182 waiter unlock 
DEBUG 2015-12-11T19:09:17.091 src/modbusmaster.cpp @ 184 rdata locked 
DEBUG 2015-12-11T19:09:17.091 src/modbusmaster.cpp @ 188 rdata unlocked 
DEBUG 2015-12-11T19:09:17.091 src/modbusmaster.cpp @ 191 thread wakeup 
DEBUG 2015-12-11T19:09:17.092 src/modbusmaster.cpp @ 179 read 
DEBUG 2015-12-11T19:09:17.092 src/modbusmaster.cpp @ 182 waiter unlock 
DEBUG 2015-12-11T19:09:17.092 src/modbusmaster.cpp @ 184 rdata locked 
DEBUG 2015-12-11T19:09:17.092 src/modbusmaster.cpp @ 188 rdata unlocked 
DEBUG 2015-12-11T19:09:17.092 src/modbusmaster.cpp @ 191 thread wakeup 
DEBUG 2015-12-11T19:09:17.092 src/pagewidget.cpp @ 208 End Get periodical parameters ------- 
DEBUG 2015-12-11T19:09:17.100 src/modbusmaster.cpp @ 327 Set slave 51 
 INFO 2015-12-11T19:09:17.100 src/modbusmaster.cpp @ 219 Tx Data :  "33  03  00  18  00  08  c0  19  " 
 INFO 2015-12-11T19:09:17.140 src/modbusmaster.cpp @ 231 Rx Data :  "33  03  10  00  24  00  00  dc  b5  1d  fd  04  00  00  00  00  00  00  00  ae  56  " 
DEBUG 2015-12-11T19:09:17.150 src/usodevice.cpp @ 406 Read parameter slot known slave  
DEBUG 2015-12-11T19:09:17.150 src/usodevice.cpp @ 409 Read parameter slot, known address  "0x30" 
DEBUG 2015-12-11T19:09:17.160 src/modbusmaster.cpp @ 327 Set slave 51 
 INFO 2015-12-11T19:09:17.160 src/modbusmaster.cpp @ 219 Tx Data :  "33  03  0b  5c  00  0a  03  e9  " 
 INFO 2015-12-11T19:09:17.204 src/modbusmaster.cpp @ 231 Rx Data :  "33  03  14  00  02  04  00  20  00  00  00  00  16  00  00  02  00  00  00  00  00  00  00  87  cb  " 
DEBUG 2015-12-11T19:09:17.215 src/usodevice.cpp @ 406 Read parameter slot known slave  
DEBUG 2015-12-11T19:09:17.215 src/usodevice.cpp @ 409 Read parameter slot, known address  "0x16b8" 
DEBUG 2015-12-11T19:09:17.225 src/modbusmaster.cpp @ 327 Set slave 51 
 INFO 2015-12-11T19:09:17.225 src/modbusmaster.cpp @ 219 Tx Data :  "33  03  01  26  00  08  a0  29  " 
 INFO 2015-12-11T19:09:17.265 src/modbusmaster.cpp @ 231 Rx Data :  "33  03  10  00  00  00  00  00  00  00  00  00  00  00  00  00  00  00  00  d2  e5  " 
DEBUG 2015-12-11T19:09:17.275 src/usodevice.cpp @ 406 Read parameter slot known slave  
DEBUG 2015-12-11T19:09:17.275 src/usodevice.cpp @ 409 Read parameter slot, known address  "0x24c" 
DEBUG 2015-12-11T19:09:17.275 src/usodevice.cpp @ 422 Sensor updte flags emit 
DEBUG 2015-12-11T19:09:17.275 src/pagewidget.cpp @ 180 Update sensor flags 
DEBUG 2015-12-11T19:09:17.275 src/pagewidget.cpp @ 185 Sensor flags  0   0   0   0 
DEBUG 2015-12-11T19:09:17.275 src/usodevice.cpp @ 330 Set command 3492 
DEBUG 2015-12-11T19:09:17.275 src/parameters/modbusparameter.cpp @ 334 Set value "0100" 
DEBUG 2015-12-11T19:09:17.275 src/modbusmaster.cpp @ 160 writedw 
DEBUG 2015-12-11T19:09:17.275 src/modbusmaster.cpp @ 143 w_waiter unlock 
DEBUG 2015-12-11T19:09:17.275 src/modbusmaster.cpp @ 145 wdata locked 
DEBUG 2015-12-11T19:09:17.275 src/modbusmaster.cpp @ 149 wdata unlocked 
DEBUG 2015-12-11T19:09:17.275 src/modbusmaster.cpp @ 152 thread wakeup 
 INFO 2015-12-11T19:09:17.285 src/modbusmaster.cpp @ 219 Tx Data :  "33  10  0d  a4  00  01  02  00  01  ef  15  " 
 INFO 2015-12-11T19:09:17.311 src/modbusmaster.cpp @ 231 Rx Data :  "33  10  0d  a4  00  01  46  94  " 
DEBUG 2015-12-11T19:09:18.091 src/pagewidget.cpp @ 203 Start Get periodical parameters ------- 
DEBUG 2015-12-11T19:09:18.091 src/modbusmaster.cpp @ 179 read 
DEBUG 2015-12-11T19:09:18.091 src/modbusmaster.cpp @ 182 waiter unlock 
DEBUG 2015-12-11T19:09:18.091 src/modbusmaster.cpp @ 184 rdata locked 
DEBUG 2015-12-11T19:09:18.091 src/modbusmaster.cpp @ 188 rdata unlocked 
DEBUG 2015-12-11T19:09:18.091 src/modbusmaster.cpp @ 191 thread wakeup 
DEBUG 2015-12-11T19:09:18.091 src/modbusmaster.cpp @ 179 read 
DEBUG 2015-12-11T19:09:18.091 src/modbusmaster.cpp @ 182 waiter unlock 
DEBUG 2015-12-11T19:09:18.091 src/modbusmaster.cpp @ 184 rdata locked 
DEBUG 2015-12-11T19:09:18.091 src/modbusmaster.cpp @ 188 rdata unlocked 
DEBUG 2015-12-11T19:09:18.091 src/modbusmaster.cpp @ 191 thread wakeup 
DEBUG 2015-12-11T19:09:18.091 src/modbusmaster.cpp @ 179 read 
DEBUG 2015-12-11T19:09:18.091 src/modbusmaster.cpp @ 182 waiter unlock 
DEBUG 2015-12-11T19:09:18.091 src/modbusmaster.cpp @ 184 rdata locked 
DEBUG 2015-12-11T19:09:18.092 src/modbusmaster.cpp @ 188 rdata unlocked 
DEBUG 2015-12-11T19:09:18.092 src/modbusmaster.cpp @ 191 thread wakeup 
DEBUG 2015-12-11T19:09:18.092 src/pagewidget.cpp @ 208 End Get periodical parameters ------- 
DEBUG 2015-12-11T19:09:18.096 src/modbusmaster.cpp @ 327 Set slave 51 
 INFO 2015-12-11T19:09:18.096 src/modbusmaster.cpp @ 219 Tx Data :  "33  03  00  18  00  08  c0  19  " 
 INFO 2015-12-11T19:09:18.136 src/modbusmaster.cpp @ 231 Rx Data :  "33  03  10  00  21  00  00  dc  b6  1d  fd  04  00  00  00  00  00  00  00  64  11  " 
DEBUG 2015-12-11T19:09:18.146 src/usodevice.cpp @ 406 Read parameter slot known slave  
DEBUG 2015-12-11T19:09:18.147 src/usodevice.cpp @ 409 Read parameter slot, known address  "0x30" 
DEBUG 2015-12-11T19:09:18.156 src/modbusmaster.cpp @ 327 Set slave 51 
 INFO 2015-12-11T19:09:18.157 src/modbusmaster.cpp @ 219 Tx Data :  "33  03  0b  5c  00  0a  03  e9  " 
 INFO 2015-12-11T19:09:18.201 src/modbusmaster.cpp @ 231 Rx Data :  "33  03  14  00  02  04  00  20  00  00  00  00  16  00  00  02  00  00  00  00  00  00  00  87  cb  " 
DEBUG 2015-12-11T19:09:18.211 src/usodevice.cpp @ 406 Read parameter slot known slave  
DEBUG 2015-12-11T19:09:18.211 src/usodevice.cpp @ 409 Read parameter slot, known address  "0x16b8" 
DEBUG 2015-12-11T19:09:18.221 src/modbusmaster.cpp @ 327 Set slave 51 
 INFO 2015-12-11T19:09:18.221 src/modbusmaster.cpp @ 219 Tx Data :  "33  03  01  26  00  08  a0  29  " 
 INFO 2015-12-11T19:09:18.261 src/modbusmaster.cpp @ 231 Rx Data :  "33  03  10  00  00  00  00  00  00  00  00  00  00  00  00  00  00  00  00  d2  e5  " 
DEBUG 2015-12-11T19:09:18.272 src/usodevice.cpp @ 406 Read parameter slot known slave  
DEBUG 2015-12-11T19:09:18.272 src/usodevice.cpp @ 409 Read parameter slot, known address  "0x24c" 
DEBUG 2015-12-11T19:09:18.272 src/usodevice.cpp @ 422 Sensor updte flags emit 
DEBUG 2015-12-11T19:09:18.272 src/pagewidget.cpp @ 180 Update sensor flags 
DEBUG 2015-12-11T19:09:18.272 src/pagewidget.cpp @ 185 Sensor flags  0   0   0   0 
DEBUG 2015-12-11T19:09:18.272 src/usodevice.cpp @ 330 Set command 3492 
DEBUG 2015-12-11T19:09:18.272 src/parameters/modbusparameter.cpp @ 334 Set value "0100" 
DEBUG 2015-12-11T19:09:18.272 src/modbusmaster.cpp @ 160 writedw 
DEBUG 2015-12-11T19:09:18.272 src/modbusmaster.cpp @ 143 w_waiter unlock 
DEBUG 2015-12-11T19:09:18.272 src/modbusmaster.cpp @ 145 wdata locked 
DEBUG 2015-12-11T19:09:18.272 src/modbusmaster.cpp @ 149 wdata unlocked 
DEBUG 2015-12-11T19:09:18.272 src/modbusmaster.cpp @ 152 thread wakeup 
 INFO 2015-12-11T19:09:18.282 src/modbusmaster.cpp @ 219 Tx Data :  "33  10  0d  a4  00  01  02  00  01  ef  15  " 
 INFO 2015-12-11T19:09:18.307 src/modbusmaster.cpp @ 231 Rx Data :  "33  10  0d  a4  00  01  46  94  " 
DEBUG 2015-12-11T19:09:19.091 src/pagewidget.cpp @ 203 Start Get periodical parameters ------- 
DEBUG 2015-12-11T19:09:19.091 src/modbusmaster.cpp @ 179 read 
DEBUG 2015-12-11T19:09:19.091 src/modbusmaster.cpp @ 182 waiter unlock 
DEBUG 2015-12-11T19:09:19.091 src/modbusmaster.cpp @ 184 rdata locked 
DEBUG 2015-12-11T19:09:19.091 src/modbusmaster.cpp @ 188 rdata unlocked 
DEBUG 2015-12-11T19:09:19.091 src/modbusmaster.cpp @ 191 thread wakeup 
DEBUG 2015-12-11T19:09:19.091 src/modbusmaster.cpp @ 179 read 
DEBUG 2015-12-11T19:09:19.091 src/modbusmaster.cpp @ 182 waiter unlock 
DEBUG 2015-12-11T19:09:19.091 src/modbusmaster.cpp @ 184 rdata locked 
DEBUG 2015-12-11T19:09:19.092 src/modbusmaster.cpp @ 188 rdata unlocked 
DEBUG 2015-12-11T19:09:19.092 src/modbusmaster.cpp @ 191 thread wakeup 
DEBUG 2015-12-11T19:09:19.092 src/modbusmaster.cpp @ 179 read 
DEBUG 2015-12-11T19:09:19.092 src/modbusmaster.cpp @ 182 waiter unlock 
DEBUG 2015-12-11T19:09:19.092 src/modbusmaster.cpp @ 184 rdata locked 
DEBUG 2015-12-11T19:09:19.092 src/modbusmaster.cpp @ 188 rdata unlocked 
DEBUG 2015-12-11T19:09:19.092 src/modbusmaster.cpp @ 191 thread wakeup 
DEBUG 2015-12-11T19:09:19.092 src/pagewidget.cpp @ 208 End Get periodical parameters ------- 
DEBUG 2015-12-11T19:09:19.093 src/modbusmaster.cpp @ 327 Set slave 51 
 INFO 2015-12-11T19:09:19.093 src/modbusmaster.cpp @ 219 Tx Data :  "33  03  00  18  00  08  c0  19  " 
 INFO 2015-12-11T19:09:19.133 src/modbusmaster.cpp @ 231 Rx Data :  "33  03  10  00  1d  00  00  dc  b7  1d  fd  04  00  00  00  00  00  00  00  5c  fc  " 
DEBUG 2015-12-11T19:09:19.143 src/usodevice.cpp @ 406 Read parameter slot known slave  
DEBUG 2015-12-11T19:09:19.143 src/usodevice.cpp @ 409 Read parameter slot, known address  "0x30" 
DEBUG 2015-12-11T19:09:19.153 src/modbusmaster.cpp @ 327 Set slave 51 
 INFO 2015-12-11T19:09:19.153 src/modbusmaster.cpp @ 219 Tx Data :  "33  03  0b  5c  00  0a  03  e9  " 
 INFO 2015-12-11T19:09:19.197 src/modbusmaster.cpp @ 231 Rx Data :  "33  03  14  00  02  04  00  20  00  00  00  00  16  00  00  02  00  00  00  00  00  00  00  87  cb  " 
DEBUG 2015-12-11T19:09:19.208 src/usodevice.cpp @ 406 Read parameter slot known slave  
DEBUG 2015-12-11T19:09:19.208 src/usodevice.cpp @ 409 Read parameter slot, known address  "0x16b8" 
DEBUG 2015-12-11T19:09:19.218 src/modbusmaster.cpp @ 327 Set slave 51 
 INFO 2015-12-11T19:09:19.218 src/modbusmaster.cpp @ 219 Tx Data :  "33  03  01  26  00  08  a0  29  " 
 INFO 2015-12-11T19:09:19.258 src/modbusmaster.cpp @ 231 Rx Data :  "33  03  10  00  00  00  00  00  00  00  00  00  00  00  00  00  00  00  00  d2  e5  " 
DEBUG 2015-12-11T19:09:19.268 src/usodevice.cpp @ 406 Read parameter slot known slave  
DEBUG 2015-12-11T19:09:19.268 src/usodevice.cpp @ 409 Read parameter slot, known address  "0x24c" 
DEBUG 2015-12-11T19:09:19.268 src/usodevice.cpp @ 422 Sensor updte flags emit 
DEBUG 2015-12-11T19:09:19.268 src/pagewidget.cpp @ 180 Update sensor flags 
DEBUG 2015-12-11T19:09:19.268 src/pagewidget.cpp @ 185 Sensor flags  0   0   0   0 
DEBUG 2015-12-11T19:09:19.268 src/usodevice.cpp @ 330 Set command 3492 
DEBUG 2015-12-11T19:09:19.268 src/parameters/modbusparameter.cpp @ 334 Set value "0100" 
DEBUG 2015-12-11T19:09:19.268 src/modbusmaster.cpp @ 160 writedw 
DEBUG 2015-12-11T19:09:19.268 src/modbusmaster.cpp @ 143 w_waiter unlock 
DEBUG 2015-12-11T19:09:19.268 src/modbusmaster.cpp @ 145 wdata locked 
DEBUG 2015-12-11T19:09:19.268 src/modbusmaster.cpp @ 149 wdata unlocked 
DEBUG 2015-12-11T19:09:19.268 src/modbusmaster.cpp @ 152 thread wakeup 
 INFO 2015-12-11T19:09:19.278 src/modbusmaster.cpp @ 219 Tx Data :  "33  10  0d  a4  00  01  02  00  01  ef  15  " 
 INFO 2015-12-11T19:09:19.303 src/modbusmaster.cpp @ 231 Rx Data :  "33  10  0d  a4  00  01  46  94  " 
DEBUG 2015-12-11T19:09:20.091 src/pagewidget.cpp @ 203 Start Get periodical parameters ------- 
DEBUG 2015-12-11T19:09:20.092 src/modbusmaster.cpp @ 179 read 
DEBUG 2015-12-11T19:09:20.092 src/modbusmaster.cpp @ 182 waiter unlock 
DEBUG 2015-12-11T19:09:20.092 src/modbusmaster.cpp @ 184 rdata locked 
DEBUG 2015-12-11T19:09:20.092 src/modbusmaster.cpp @ 188 rdata unlocked 
DEBUG 2015-12-11T19:09:20.092 src/modbusmaster.cpp @ 191 thread wakeup 
DEBUG 2015-12-11T19:09:20.092 src/modbusmaster.cpp @ 179 read 
DEBUG 2015-12-11T19:09:20.092 src/modbusmaster.cpp @ 182 waiter unlock 
DEBUG 2015-12-11T19:09:20.092 src/modbusmaster.cpp @ 184 rdata locked 
DEBUG 2015-12-11T19:09:20.092 src/modbusmaster.cpp @ 188 rdata unlocked 
DEBUG 2015-12-11T19:09:20.092 src/modbusmaster.cpp @ 191 thread wakeup 
DEBUG 2015-12-11T19:09:20.092 src/modbusmaster.cpp @ 179 read 
DEBUG 2015-12-11T19:09:20.092 src/modbusmaster.cpp @ 182 waiter unlock 
DEBUG 2015-12-11T19:09:20.092 src/modbusmaster.cpp @ 184 rdata locked 
DEBUG 2015-12-11T19:09:20.092 src/modbusmaster.cpp @ 188 rdata unlocked 
DEBUG 2015-12-11T19:09:20.092 src/modbusmaster.cpp @ 191 thread wakeup 
DEBUG 2015-12-11T19:09:20.092 src/pagewidget.cpp @ 208 End Get periodical parameters ------- 
DEBUG 2015-12-11T19:09:20.099 src/modbusmaster.cpp @ 327 Set slave 51 
 INFO 2015-12-11T19:09:20.099 src/modbusmaster.cpp @ 219 Tx Data :  "33  03  00  18  00  08  c0  19  " 
 INFO 2015-12-11T19:09:20.139 src/modbusmaster.cpp @ 231 Rx Data :  "33  03  10  00  24  00  00  dc  b8  1d  fd  04  00  00  00  00  00  00  00  95  fa  " 
DEBUG 2015-12-11T19:09:20.149 src/usodevice.cpp @ 406 Read parameter slot known slave  
DEBUG 2015-12-11T19:09:20.149 src/usodevice.cpp @ 409 Read parameter slot, known address  "0x30" 
DEBUG 2015-12-11T19:09:20.159 src/modbusmaster.cpp @ 327 Set slave 51 
 INFO 2015-12-11T19:09:20.160 src/modbusmaster.cpp @ 219 Tx Data :  "33  03  0b  5c  00  0a  03  e9  " 
 INFO 2015-12-11T19:09:20.204 src/modbusmaster.cpp @ 231 Rx Data :  "33  03  14  00  02  04  00  20  00  00  00  00  16  00  00  02  00  00  00  00  00  00  00  87  cb  " 
DEBUG 2015-12-11T19:09:20.214 src/usodevice.cpp @ 406 Read parameter slot known slave  
DEBUG 2015-12-11T19:09:20.214 src/usodevice.cpp @ 409 Read parameter slot, known address  "0x16b8" 
DEBUG 2015-12-11T19:09:20.224 src/modbusmaster.cpp @ 327 Set slave 51 
 INFO 2015-12-11T19:09:20.224 src/modbusmaster.cpp @ 219 Tx Data :  "33  03  01  26  00  08  a0  29  " 
 INFO 2015-12-11T19:09:20.264 src/modbusmaster.cpp @ 231 Rx Data :  "33  03  10  00  00  00  00  00  00  00  00  00  00  00  00  00  00  00  00  d2  e5  " 
DEBUG 2015-12-11T19:09:20.275 src/usodevice.cpp @ 406 Read parameter slot known slave  
DEBUG 2015-12-11T19:09:20.275 src/usodevice.cpp @ 409 Read parameter slot, known address  "0x24c" 
DEBUG 2015-12-11T19:09:20.275 src/usodevice.cpp @ 422 Sensor updte flags emit 
DEBUG 2015-12-11T19:09:20.275 src/pagewidget.cpp @ 180 Update sensor flags 
DEBUG 2015-12-11T19:09:20.275 src/pagewidget.cpp @ 185 Sensor flags  0   0   0   0 
DEBUG 2015-12-11T19:09:20.275 src/usodevice.cpp @ 330 Set command 3492 
DEBUG 2015-12-11T19:09:20.275 src/parameters/modbusparameter.cpp @ 334 Set value "0100" 
DEBUG 2015-12-11T19:09:20.275 src/modbusmaster.cpp @ 160 writedw 
DEBUG 2015-12-11T19:09:20.275 src/modbusmaster.cpp @ 143 w_waiter unlock 
DEBUG 2015-12-11T19:09:20.275 src/modbusmaster.cpp @ 145 wdata locked 
DEBUG 2015-12-11T19:09:20.275 src/modbusmaster.cpp @ 149 wdata unlocked 
DEBUG 2015-12-11T19:09:20.275 src/modbusmaster.cpp @ 152 thread wakeup 
 INFO 2015-12-11T19:09:20.285 src/modbusmaster.cpp @ 219 Tx Data :  "33  10  0d  a4  00  01  02  00  01  ef  15  " 
 INFO 2015-12-11T19:09:20.310 src/modbusmaster.cpp @ 231 Rx Data :  "33  10  0d  a4  00  01  46  94  " 
DEBUG 2015-12-11T19:09:21.091 src/pagewidget.cpp @ 203 Start Get periodical parameters ------- 
DEBUG 2015-12-11T19:09:21.091 src/modbusmaster.cpp @ 179 read 
DEBUG 2015-12-11T19:09:21.091 src/modbusmaster.cpp @ 182 waiter unlock 
DEBUG 2015-12-11T19:09:21.091 src/modbusmaster.cpp @ 184 rdata locked 
DEBUG 2015-12-11T19:09:21.091 src/modbusmaster.cpp @ 188 rdata unlocked 
DEBUG 2015-12-11T19:09:21.091 src/modbusmaster.cpp @ 191 thread wakeup 
DEBUG 2015-12-11T19:09:21.091 src/modbusmaster.cpp @ 179 read 
DEBUG 2015-12-11T19:09:21.092 src/modbusmaster.cpp @ 182 waiter unlock 
DEBUG 2015-12-11T19:09:21.092 src/modbusmaster.cpp @ 184 rdata locked 
DEBUG 2015-12-11T19:09:21.092 src/modbusmaster.cpp @ 188 rdata unlocked 
DEBUG 2015-12-11T19:09:21.092 src/modbusmaster.cpp @ 191 thread wakeup 
DEBUG 2015-12-11T19:09:21.092 src/modbusmaster.cpp @ 179 read 
DEBUG 2015-12-11T19:09:21.092 src/modbusmaster.cpp @ 182 waiter unlock 
DEBUG 2015-12-11T19:09:21.092 src/modbusmaster.cpp @ 184 rdata locked 
DEBUG 2015-12-11T19:09:21.092 src/modbusmaster.cpp @ 188 rdata unlocked 
DEBUG 2015-12-11T19:09:21.092 src/modbusmaster.cpp @ 191 thread wakeup 
DEBUG 2015-12-11T19:09:21.092 src/pagewidget.cpp @ 208 End Get periodical parameters ------- 
DEBUG 2015-12-11T19:09:21.096 src/modbusmaster.cpp @ 327 Set slave 51 
 INFO 2015-12-11T19:09:21.096 src/modbusmaster.cpp @ 219 Tx Data :  "33  03  00  18  00  08  c0  19  " 
 INFO 2015-12-11T19:09:21.136 src/modbusmaster.cpp @ 231 Rx Data :  "33  03  10  00  20  00  00  dc  b9  1d  fd  04  00  00  00  00  00  00  00  95  05  " 
DEBUG 2015-12-11T19:09:21.146 src/usodevice.cpp @ 406 Read parameter slot known slave  
DEBUG 2015-12-11T19:09:21.146 src/usodevice.cpp @ 409 Read parameter slot, known address  "0x30" 
DEBUG 2015-12-11T19:09:21.156 src/modbusmaster.cpp @ 327 Set slave 51 
 INFO 2015-12-11T19:09:21.156 src/modbusmaster.cpp @ 219 Tx Data :  "33  03  0b  5c  00  0a  03  e9  " 
 INFO 2015-12-11T19:09:21.200 src/modbusmaster.cpp @ 231 Rx Data :  "33  03  14  00  02  04  00  20  00  00  00  00  16  00  00  02  00  00  00  00  00  00  00  87  cb  " 
DEBUG 2015-12-11T19:09:21.211 src/usodevice.cpp @ 406 Read parameter slot known slave  
DEBUG 2015-12-11T19:09:21.211 src/usodevice.cpp @ 409 Read parameter slot, known address  "0x16b8" 
DEBUG 2015-12-11T19:09:21.221 src/modbusmaster.cpp @ 327 Set slave 51 
 INFO 2015-12-11T19:09:21.221 src/modbusmaster.cpp @ 219 Tx Data :  "33  03  01  26  00  08  a0  29  " 
 INFO 2015-12-11T19:09:21.261 src/modbusmaster.cpp @ 231 Rx Data :  "33  03  10  00  00  00  00  00  00  00  00  00  00  00  00  00  00  00  00  d2  e5  " 
DEBUG 2015-12-11T19:09:21.271 src/usodevice.cpp @ 406 Read parameter slot known slave  
DEBUG 2015-12-11T19:09:21.271 src/usodevice.cpp @ 409 Read parameter slot, known address  "0x24c" 
DEBUG 2015-12-11T19:09:21.271 src/usodevice.cpp @ 422 Sensor updte flags emit 
DEBUG 2015-12-11T19:09:21.271 src/pagewidget.cpp @ 180 Update sensor flags 
DEBUG 2015-12-11T19:09:21.271 src/pagewidget.cpp @ 185 Sensor flags  0   0   0   0 
DEBUG 2015-12-11T19:09:21.271 src/usodevice.cpp @ 330 Set command 3492 
DEBUG 2015-12-11T19:09:21.271 src/parameters/modbusparameter.cpp @ 334 Set value "0100" 
DEBUG 2015-12-11T19:09:21.271 src/modbusmaster.cpp @ 160 writedw 
DEBUG 2015-12-11T19:09:21.271 src/modbusmaster.cpp @ 143 w_waiter unlock 
DEBUG 2015-12-11T19:09:21.271 src/modbusmaster.cpp @ 145 wdata locked 
DEBUG 2015-12-11T19:09:21.271 src/modbusmaster.cpp @ 149 wdata unlocked 
DEBUG 2015-12-11T19:09:21.272 src/modbusmaster.cpp @ 152 thread wakeup 
 INFO 2015-12-11T19:09:21.281 src/modbusmaster.cpp @ 219 Tx Data :  "33  10  0d  a4  00  01  02  00  01  ef  15  " 
 INFO 2015-12-11T19:09:21.307 src/modbusmaster.cpp @ 231 Rx Data :  "33  10  0d  a4  00  01  46  94  " 
DEBUG 2015-12-11T19:09:22.091 src/pagewidget.cpp @ 203 Start Get periodical parameters ------- 
DEBUG 2015-12-11T19:09:22.091 src/modbusmaster.cpp @ 179 read 
DEBUG 2015-12-11T19:09:22.091 src/modbusmaster.cpp @ 182 waiter unlock 
DEBUG 2015-12-11T19:09:22.091 src/modbusmaster.cpp @ 184 rdata locked 
DEBUG 2015-12-11T19:09:22.091 src/modbusmaster.cpp @ 188 rdata unlocked 
DEBUG 2015-12-11T19:09:22.091 src/modbusmaster.cpp @ 191 thread wakeup 
DEBUG 2015-12-11T19:09:22.091 src/modbusmaster.cpp @ 179 read 
DEBUG 2015-12-11T19:09:22.091 src/modbusmaster.cpp @ 182 waiter unlock 
DEBUG 2015-12-11T19:09:22.091 src/modbusmaster.cpp @ 184 rdata locked 
DEBUG 2015-12-11T19:09:22.091 src/modbusmaster.cpp @ 188 rdata unlocked 
DEBUG 2015-12-11T19:09:22.091 src/modbusmaster.cpp @ 191 thread wakeup 
DEBUG 2015-12-11T19:09:22.091 src/modbusmaster.cpp @ 179 read 
DEBUG 2015-12-11T19:09:22.091 src/modbusmaster.cpp @ 182 waiter unlock 
DEBUG 2015-12-11T19:09:22.091 src/modbusmaster.cpp @ 184 rdata locked 
DEBUG 2015-12-11T19:09:22.091 src/modbusmaster.cpp @ 188 rdata unlocked 
DEBUG 2015-12-11T19:09:22.091 src/modbusmaster.cpp @ 191 thread wakeup 
DEBUG 2015-12-11T19:09:22.091 src/pagewidget.cpp @ 208 End Get periodical parameters ------- 
DEBUG 2015-12-11T19:09:22.092 src/modbusmaster.cpp @ 327 Set slave 51 
 INFO 2015-12-11T19:09:22.092 src/modbusmaster.cpp @ 219 Tx Data :  "33  03  00  18  00  08  c0  19  " 
 INFO 2015-12-11T19:09:22.132 src/modbusmaster.cpp @ 231 Rx Data :  "33  03  10  00  1d  00  00  dc  ba  1d  fd  04  00  00  00  00  00  00  00  67  50  " 
DEBUG 2015-12-11T19:09:22.143 src/usodevice.cpp @ 406 Read parameter slot known slave  
DEBUG 2015-12-11T19:09:22.143 src/usodevice.cpp @ 409 Read parameter slot, known address  "0x30" 
DEBUG 2015-12-11T19:09:22.153 src/modbusmaster.cpp @ 327 Set slave 51 
 INFO 2015-12-11T19:09:22.153 src/modbusmaster.cpp @ 219 Tx Data :  "33  03  0b  5c  00  0a  03  e9  " 
 INFO 2015-12-11T19:09:22.197 src/modbusmaster.cpp @ 231 Rx Data :  "33  03  14  00  02  04  00  20  00  00  00  00  16  00  00  02  00  00  00  00  00  00  00  87  cb  " 
DEBUG 2015-12-11T19:09:22.207 src/usodevice.cpp @ 406 Read parameter slot known slave  
DEBUG 2015-12-11T19:09:22.207 src/usodevice.cpp @ 409 Read parameter slot, known address  "0x16b8" 
DEBUG 2015-12-11T19:09:22.217 src/modbusmaster.cpp @ 327 Set slave 51 
 INFO 2015-12-11T19:09:22.217 src/modbusmaster.cpp @ 219 Tx Data :  "33  03  01  26  00  08  a0  29  " 
 INFO 2015-12-11T19:09:22.257 src/modbusmaster.cpp @ 231 Rx Data :  "33  03  10  00  00  00  00  00  00  00  00  00  00  00  00  00  00  00  00  d2  e5  " 
DEBUG 2015-12-11T19:09:22.268 src/usodevice.cpp @ 406 Read parameter slot known slave  
DEBUG 2015-12-11T19:09:22.268 src/usodevice.cpp @ 409 Read parameter slot, known address  "0x24c" 
DEBUG 2015-12-11T19:09:22.268 src/usodevice.cpp @ 422 Sensor updte flags emit 
DEBUG 2015-12-11T19:09:22.268 src/pagewidget.cpp @ 180 Update sensor flags 
DEBUG 2015-12-11T19:09:22.268 src/pagewidget.cpp @ 185 Sensor flags  0   0   0   0 
DEBUG 2015-12-11T19:09:22.268 src/usodevice.cpp @ 330 Set command 3492 
DEBUG 2015-12-11T19:09:22.268 src/parameters/modbusparameter.cpp @ 334 Set value "0100" 
DEBUG 2015-12-11T19:09:22.268 src/modbusmaster.cpp @ 160 writedw 
DEBUG 2015-12-11T19:09:22.268 src/modbusmaster.cpp @ 143 w_waiter unlock 
DEBUG 2015-12-11T19:09:22.268 src/modbusmaster.cpp @ 145 wdata locked 
DEBUG 2015-12-11T19:09:22.268 src/modbusmaster.cpp @ 149 wdata unlocked 
DEBUG 2015-12-11T19:09:22.268 src/modbusmaster.cpp @ 152 thread wakeup 
 INFO 2015-12-11T19:09:22.278 src/modbusmaster.cpp @ 219 Tx Data :  "33  10  0d  a4  00  01  02  00  01  ef  15  " 
 INFO 2015-12-11T19:09:22.303 src/modbusmaster.cpp @ 231 Rx Data :  "33  10  0d  a4  00  01  46  94  " 
DEBUG 2015-12-11T19:09:23.091 src/pagewidget.cpp @ 203 Start Get periodical parameters ------- 
DEBUG 2015-12-11T19:09:23.091 src/modbusmaster.cpp @ 179 read 
DEBUG 2015-12-11T19:09:23.092 src/modbusmaster.cpp @ 182 waiter unlock 
DEBUG 2015-12-11T19:09:23.092 src/modbusmaster.cpp @ 184 rdata locked 
DEBUG 2015-12-11T19:09:23.092 src/modbusmaster.cpp @ 188 rdata unlocked 
DEBUG 2015-12-11T19:09:23.092 src/modbusmaster.cpp @ 191 thread wakeup 
DEBUG 2015-12-11T19:09:23.092 src/modbusmaster.cpp @ 179 read 
DEBUG 2015-12-11T19:09:23.092 src/modbusmaster.cpp @ 182 waiter unlock 
DEBUG 2015-12-11T19:09:23.092 src/modbusmaster.cpp @ 184 rdata locked 
DEBUG 2015-12-11T19:09:23.092 src/modbusmaster.cpp @ 188 rdata unlocked 
DEBUG 2015-12-11T19:09:23.092 src/modbusmaster.cpp @ 191 thread wakeup 
DEBUG 2015-12-11T19:09:23.092 src/modbusmaster.cpp @ 179 read 
DEBUG 2015-12-11T19:09:23.092 src/modbusmaster.cpp @ 182 waiter unlock 
DEBUG 2015-12-11T19:09:23.092 src/modbusmaster.cpp @ 184 rdata locked 
DEBUG 2015-12-11T19:09:23.092 src/modbusmaster.cpp @ 188 rdata unlocked 
DEBUG 2015-12-11T19:09:23.092 src/modbusmaster.cpp @ 191 thread wakeup 
DEBUG 2015-12-11T19:09:23.092 src/pagewidget.cpp @ 208 End Get periodical parameters ------- 
DEBUG 2015-12-11T19:09:23.099 src/modbusmaster.cpp @ 327 Set slave 51 
 INFO 2015-12-11T19:09:23.099 src/modbusmaster.cpp @ 219 Tx Data :  "33  03  00  18  00  08  c0  19  " 
 INFO 2015-12-11T19:09:23.139 src/modbusmaster.cpp @ 231 Rx Data :  "33  03  10  00  23  00  00  dc  bb  1d  fd  04  00  00  00  00  00  00  00  dd  bc  " 
DEBUG 2015-12-11T19:09:23.149 src/usodevice.cpp @ 406 Read parameter slot known slave  
DEBUG 2015-12-11T19:09:23.149 src/usodevice.cpp @ 409 Read parameter slot, known address  "0x30" 
DEBUG 2015-12-11T19:09:23.159 src/modbusmaster.cpp @ 327 Set slave 51 
 INFO 2015-12-11T19:09:23.159 src/modbusmaster.cpp @ 219 Tx Data :  "33  03  0b  5c  00  0a  03  e9  " 
 INFO 2015-12-11T19:09:23.204 src/modbusmaster.cpp @ 231 Rx Data :  "33  03  14  00  02  04  00  20  00  00  00  00  16  00  00  02  00  00  00  00  00  00  00  87  cb  " 
DEBUG 2015-12-11T19:09:23.214 src/usodevice.cpp @ 406 Read parameter slot known slave  
DEBUG 2015-12-11T19:09:23.214 src/usodevice.cpp @ 409 Read parameter slot, known address  "0x16b8" 
DEBUG 2015-12-11T19:09:23.224 src/modbusmaster.cpp @ 327 Set slave 51 
 INFO 2015-12-11T19:09:23.224 src/modbusmaster.cpp @ 219 Tx Data :  "33  03  01  26  00  08  a0  29  " 
 INFO 2015-12-11T19:09:23.264 src/modbusmaster.cpp @ 231 Rx Data :  "33  03  10  00  00  00  00  00  00  00  00  00  00  00  00  00  00  00  00  d2  e5  " 
DEBUG 2015-12-11T19:09:23.274 src/usodevice.cpp @ 406 Read parameter slot known slave  
DEBUG 2015-12-11T19:09:23.274 src/usodevice.cpp @ 409 Read parameter slot, known address  "0x24c" 
DEBUG 2015-12-11T19:09:23.274 src/usodevice.cpp @ 422 Sensor updte flags emit 
DEBUG 2015-12-11T19:09:23.275 src/pagewidget.cpp @ 180 Update sensor flags 
DEBUG 2015-12-11T19:09:23.275 src/pagewidget.cpp @ 185 Sensor flags  0   0   0   0 
DEBUG 2015-12-11T19:09:23.275 src/usodevice.cpp @ 330 Set command 3492 
DEBUG 2015-12-11T19:09:23.275 src/parameters/modbusparameter.cpp @ 334 Set value "0100" 
DEBUG 2015-12-11T19:09:23.275 src/modbusmaster.cpp @ 160 writedw 
DEBUG 2015-12-11T19:09:23.275 src/modbusmaster.cpp @ 143 w_waiter unlock 
DEBUG 2015-12-11T19:09:23.275 src/modbusmaster.cpp @ 145 wdata locked 
DEBUG 2015-12-11T19:09:23.275 src/modbusmaster.cpp @ 149 wdata unlocked 
DEBUG 2015-12-11T19:09:23.275 src/modbusmaster.cpp @ 152 thread wakeup 
 INFO 2015-12-11T19:09:23.284 src/modbusmaster.cpp @ 219 Tx Data :  "33  10  0d  a4  00  01  02  00  01  ef  15  " 
 INFO 2015-12-11T19:09:23.310 src/modbusmaster.cpp @ 231 Rx Data :  "33  10  0d  a4  00  01  46  94  " 
DEBUG 2015-12-11T19:09:24.091 src/pagewidget.cpp @ 203 Start Get periodical parameters ------- 
DEBUG 2015-12-11T19:09:24.091 src/modbusmaster.cpp @ 179 read 
DEBUG 2015-12-11T19:09:24.091 src/modbusmaster.cpp @ 182 waiter unlock 
DEBUG 2015-12-11T19:09:24.091 src/modbusmaster.cpp @ 184 rdata locked 
DEBUG 2015-12-11T19:09:24.091 src/modbusmaster.cpp @ 188 rdata unlocked 
DEBUG 2015-12-11T19:09:24.091 src/modbusmaster.cpp @ 191 thread wakeup 
DEBUG 2015-12-11T19:09:24.091 src/modbusmaster.cpp @ 179 read 
DEBUG 2015-12-11T19:09:24.091 src/modbusmaster.cpp @ 182 waiter unlock 
DEBUG 2015-12-11T19:09:24.091 src/modbusmaster.cpp @ 184 rdata locked 
DEBUG 2015-12-11T19:09:24.091 src/modbusmaster.cpp @ 188 rdata unlocked 
DEBUG 2015-12-11T19:09:24.091 src/modbusmaster.cpp @ 191 thread wakeup 
DEBUG 2015-12-11T19:09:24.091 src/modbusmaster.cpp @ 179 read 
DEBUG 2015-12-11T19:09:24.091 src/modbusmaster.cpp @ 182 waiter unlock 
DEBUG 2015-12-11T19:09:24.091 src/modbusmaster.cpp @ 184 rdata locked 
DEBUG 2015-12-11T19:09:24.091 src/modbusmaster.cpp @ 188 rdata unlocked 
DEBUG 2015-12-11T19:09:24.092 src/modbusmaster.cpp @ 191 thread wakeup 
DEBUG 2015-12-11T19:09:24.092 src/pagewidget.cpp @ 208 End Get periodical parameters ------- 
DEBUG 2015-12-11T19:09:24.095 src/modbusmaster.cpp @ 327 Set slave 51 
 INFO 2015-12-11T19:09:24.095 src/modbusmaster.cpp @ 219 Tx Data :  "33  03  00  18  00  08  c0  19  " 
 INFO 2015-12-11T19:09:24.136 src/modbusmaster.cpp @ 231 Rx Data :  "33  03  10  00  20  00  00  dc  bc  1d  fd  04  00  00  00  00  00  00  00  84  c9  " 
DEBUG 2015-12-11T19:09:24.146 src/usodevice.cpp @ 406 Read parameter slot known slave  
DEBUG 2015-12-11T19:09:24.146 src/usodevice.cpp @ 409 Read parameter slot, known address  "0x30" 
DEBUG 2015-12-11T19:09:24.156 src/modbusmaster.cpp @ 327 Set slave 51 
 INFO 2015-12-11T19:09:24.156 src/modbusmaster.cpp @ 219 Tx Data :  "33  03  0b  5c  00  0a  03  e9  " 
 INFO 2015-12-11T19:09:24.200 src/modbusmaster.cpp @ 231 Rx Data :  "33  03  14  00  02  04  00  20  00  00  00  00  16  00  00  02  00  00  00  00  00  00  00  87  cb  " 
DEBUG 2015-12-11T19:09:24.210 src/usodevice.cpp @ 406 Read parameter slot known slave  
DEBUG 2015-12-11T19:09:24.211 src/usodevice.cpp @ 409 Read parameter slot, known address  "0x16b8" 
DEBUG 2015-12-11T19:09:24.220 src/modbusmaster.cpp @ 327 Set slave 51 
 INFO 2015-12-11T19:09:24.221 src/modbusmaster.cpp @ 219 Tx Data :  "33  03  01  26  00  08  a0  29  " 
 INFO 2015-12-11T19:09:24.261 src/modbusmaster.cpp @ 231 Rx Data :  "33  03  10  00  00  00  00  00  00  00  00  00  00  00  00  00  00  00  00  d2  e5  " 
DEBUG 2015-12-11T19:09:24.271 src/usodevice.cpp @ 406 Read parameter slot known slave  
DEBUG 2015-12-11T19:09:24.271 src/usodevice.cpp @ 409 Read parameter slot, known address  "0x24c" 
DEBUG 2015-12-11T19:09:24.271 src/usodevice.cpp @ 422 Sensor updte flags emit 
DEBUG 2015-12-11T19:09:24.271 src/pagewidget.cpp @ 180 Update sensor flags 
DEBUG 2015-12-11T19:09:24.271 src/pagewidget.cpp @ 185 Sensor flags  0   0   0   0 
DEBUG 2015-12-11T19:09:24.271 src/usodevice.cpp @ 330 Set command 3492 
DEBUG 2015-12-11T19:09:24.271 src/parameters/modbusparameter.cpp @ 334 Set value "0100" 
DEBUG 2015-12-11T19:09:24.271 src/modbusmaster.cpp @ 160 writedw 
DEBUG 2015-12-11T19:09:24.271 src/modbusmaster.cpp @ 143 w_waiter unlock 
DEBUG 2015-12-11T19:09:24.271 src/modbusmaster.cpp @ 145 wdata locked 
DEBUG 2015-12-11T19:09:24.271 src/modbusmaster.cpp @ 149 wdata unlocked 
DEBUG 2015-12-11T19:09:24.271 src/modbusmaster.cpp @ 152 thread wakeup 
 INFO 2015-12-11T19:09:24.281 src/modbusmaster.cpp @ 219 Tx Data :  "33  10  0d  a4  00  01  02  00  01  ef  15  " 
 INFO 2015-12-11T19:09:24.306 src/modbusmaster.cpp @ 231 Rx Data :  "33  10  0d  a4  00  01  46  94  " 
DEBUG 2015-12-11T19:09:25.091 src/pagewidget.cpp @ 203 Start Get periodical parameters ------- 
DEBUG 2015-12-11T19:09:25.091 src/modbusmaster.cpp @ 179 read 
DEBUG 2015-12-11T19:09:25.091 src/modbusmaster.cpp @ 182 waiter unlock 
DEBUG 2015-12-11T19:09:25.091 src/modbusmaster.cpp @ 184 rdata locked 
DEBUG 2015-12-11T19:09:25.091 src/modbusmaster.cpp @ 188 rdata unlocked 
DEBUG 2015-12-11T19:09:25.092 src/modbusmaster.cpp @ 191 thread wakeup 
DEBUG 2015-12-11T19:09:25.092 src/modbusmaster.cpp @ 179 read 
DEBUG 2015-12-11T19:09:25.092 src/modbusmaster.cpp @ 182 waiter unlock 
DEBUG 2015-12-11T19:09:25.092 src/modbusmaster.cpp @ 184 rdata locked 
DEBUG 2015-12-11T19:09:25.092 src/modbusmaster.cpp @ 188 rdata unlocked 
DEBUG 2015-12-11T19:09:25.092 src/modbusmaster.cpp @ 191 thread wakeup 
DEBUG 2015-12-11T19:09:25.092 src/modbusmaster.cpp @ 327 Set slave 51 
DEBUG 2015-12-11T19:09:25.092 src/modbusmaster.cpp @ 179 read 
 INFO 2015-12-11T19:09:25.092 src/modbusmaster.cpp @ 219 Tx Data :  "33  03  00  18  00  08  c0  19  " 
DEBUG 2015-12-11T19:09:25.092 src/modbusmaster.cpp @ 182 waiter unlock 
DEBUG 2015-12-11T19:09:25.092 src/modbusmaster.cpp @ 184 rdata locked 
DEBUG 2015-12-11T19:09:25.092 src/modbusmaster.cpp @ 188 rdata unlocked 
DEBUG 2015-12-11T19:09:25.092 src/modbusmaster.cpp @ 191 thread wakeup 
DEBUG 2015-12-11T19:09:25.092 src/pagewidget.cpp @ 208 End Get periodical parameters ------- 
 INFO 2015-12-11T19:09:25.132 src/modbusmaster.cpp @ 231 Rx Data :  "33  03  10  00  1c  00  00  dc  bd  1d  fd  04  00  00  00  00  00  00  00  bc  24  " 
DEBUG 2015-12-11T19:09:25.142 src/usodevice.cpp @ 406 Read parameter slot known slave  
DEBUG 2015-12-11T19:09:25.142 src/usodevice.cpp @ 409 Read parameter slot, known address  "0x30" 
DEBUG 2015-12-11T19:09:25.152 src/modbusmaster.cpp @ 327 Set slave 51 
 INFO 2015-12-11T19:09:25.152 src/modbusmaster.cpp @ 219 Tx Data :  "33  03  0b  5c  00  0a  03  e9  " 
 INFO 2015-12-11T19:09:25.197 src/modbusmaster.cpp @ 231 Rx Data :  "33  03  14  00  02  04  00  20  00  00  00  00  16  00  00  02  00  00  00  00  00  00  00  87  cb  " 
DEBUG 2015-12-11T19:09:25.207 src/usodevice.cpp @ 406 Read parameter slot known slave  
DEBUG 2015-12-11T19:09:25.207 src/usodevice.cpp @ 409 Read parameter slot, known address  "0x16b8" 
DEBUG 2015-12-11T19:09:25.217 src/modbusmaster.cpp @ 327 Set slave 51 
 INFO 2015-12-11T19:09:25.217 src/modbusmaster.cpp @ 219 Tx Data :  "33  03  01  26  00  08  a0  29  " 
 INFO 2015-12-11T19:09:25.257 src/modbusmaster.cpp @ 231 Rx Data :  "33  03  10  00  00  00  00  00  00  00  00  00  00  00  00  00  00  00  00  d2  e5  " 
DEBUG 2015-12-11T19:09:25.267 src/usodevice.cpp @ 406 Read parameter slot known slave  
DEBUG 2015-12-11T19:09:25.267 src/usodevice.cpp @ 409 Read parameter slot, known address  "0x24c" 
DEBUG 2015-12-11T19:09:25.267 src/usodevice.cpp @ 422 Sensor updte flags emit 
DEBUG 2015-12-11T19:09:25.268 src/pagewidget.cpp @ 180 Update sensor flags 
DEBUG 2015-12-11T19:09:25.268 src/pagewidget.cpp @ 185 Sensor flags  0   0   0   0 
DEBUG 2015-12-11T19:09:25.268 src/usodevice.cpp @ 330 Set command 3492 
DEBUG 2015-12-11T19:09:25.268 src/parameters/modbusparameter.cpp @ 334 Set value "0100" 
DEBUG 2015-12-11T19:09:25.268 src/modbusmaster.cpp @ 160 writedw 
DEBUG 2015-12-11T19:09:25.268 src/modbusmaster.cpp @ 143 w_waiter unlock 
DEBUG 2015-12-11T19:09:25.268 src/modbusmaster.cpp @ 145 wdata locked 
DEBUG 2015-12-11T19:09:25.268 src/modbusmaster.cpp @ 149 wdata unlocked 
DEBUG 2015-12-11T19:09:25.268 src/modbusmaster.cpp @ 152 thread wakeup 
 INFO 2015-12-11T19:09:25.277 src/modbusmaster.cpp @ 219 Tx Data :  "33  10  0d  a4  00  01  02  00  01  ef  15  " 
 INFO 2015-12-11T19:09:25.303 src/modbusmaster.cpp @ 231 Rx Data :  "33  10  0d  a4  00  01  46  94  " 
DEBUG 2015-12-11T19:09:26.091 src/pagewidget.cpp @ 203 Start Get periodical parameters ------- 
DEBUG 2015-12-11T19:09:26.091 src/modbusmaster.cpp @ 179 read 
DEBUG 2015-12-11T19:09:26.091 src/modbusmaster.cpp @ 182 waiter unlock 
DEBUG 2015-12-11T19:09:26.091 src/modbusmaster.cpp @ 184 rdata locked 
DEBUG 2015-12-11T19:09:26.091 src/modbusmaster.cpp @ 188 rdata unlocked 
DEBUG 2015-12-11T19:09:26.091 src/modbusmaster.cpp @ 191 thread wakeup 
DEBUG 2015-12-11T19:09:26.091 src/modbusmaster.cpp @ 179 read 
DEBUG 2015-12-11T19:09:26.091 src/modbusmaster.cpp @ 182 waiter unlock 
DEBUG 2015-12-11T19:09:26.091 src/modbusmaster.cpp @ 184 rdata locked 
DEBUG 2015-12-11T19:09:26.091 src/modbusmaster.cpp @ 188 rdata unlocked 
DEBUG 2015-12-11T19:09:26.091 src/modbusmaster.cpp @ 191 thread wakeup 
DEBUG 2015-12-11T19:09:26.092 src/modbusmaster.cpp @ 179 read 
DEBUG 2015-12-11T19:09:26.092 src/modbusmaster.cpp @ 182 waiter unlock 
DEBUG 2015-12-11T19:09:26.092 src/modbusmaster.cpp @ 184 rdata locked 
DEBUG 2015-12-11T19:09:26.092 src/modbusmaster.cpp @ 188 rdata unlocked 
DEBUG 2015-12-11T19:09:26.092 src/modbusmaster.cpp @ 191 thread wakeup 
DEBUG 2015-12-11T19:09:26.092 src/pagewidget.cpp @ 208 End Get periodical parameters ------- 
DEBUG 2015-12-11T19:09:26.099 src/modbusmaster.cpp @ 327 Set slave 51 
 INFO 2015-12-11T19:09:26.099 src/modbusmaster.cpp @ 219 Tx Data :  "33  03  00  18  00  08  c0  19  " 
 INFO 2015-12-11T19:09:26.139 src/modbusmaster.cpp @ 231 Rx Data :  "33  03  10  00  23  00  00  dc  be  1d  fd  04  00  00  00  00  00  00  00  cc  70  " 
DEBUG 2015-12-11T19:09:26.149 src/usodevice.cpp @ 406 Read parameter slot known slave  
DEBUG 2015-12-11T19:09:26.149 src/usodevice.cpp @ 409 Read parameter slot, known address  "0x30" 
DEBUG 2015-12-11T19:09:26.159 src/modbusmaster.cpp @ 327 Set slave 51 
 INFO 2015-12-11T19:09:26.159 src/modbusmaster.cpp @ 219 Tx Data :  "33  03  0b  5c  00  0a  03  e9  " 
 INFO 2015-12-11T19:09:26.203 src/modbusmaster.cpp @ 231 Rx Data :  "33  03  14  00  02  04  00  20  00  00  00  00  16  00  00  02  00  00  00  00  00  00  00  87  cb  " 
DEBUG 2015-12-11T19:09:26.214 src/usodevice.cpp @ 406 Read parameter slot known slave  
DEBUG 2015-12-11T19:09:26.214 src/usodevice.cpp @ 409 Read parameter slot, known address  "0x16b8" 
DEBUG 2015-12-11T19:09:26.224 src/modbusmaster.cpp @ 327 Set slave 51 
 INFO 2015-12-11T19:09:26.224 src/modbusmaster.cpp @ 219 Tx Data :  "33  03  01  26  00  08  a0  29  " 
 INFO 2015-12-11T19:09:26.264 src/modbusmaster.cpp @ 231 Rx Data :  "33  03  10  00  00  00  00  00  00  00  00  00  00  00  00  00  00  00  00  d2  e5  " 
DEBUG 2015-12-11T19:09:26.274 src/usodevice.cpp @ 406 Read parameter slot known slave  
DEBUG 2015-12-11T19:09:26.274 src/usodevice.cpp @ 409 Read parameter slot, known address  "0x24c" 
DEBUG 2015-12-11T19:09:26.274 src/usodevice.cpp @ 422 Sensor updte flags emit 
DEBUG 2015-12-11T19:09:26.274 src/pagewidget.cpp @ 180 Update sensor flags 
DEBUG 2015-12-11T19:09:26.274 src/pagewidget.cpp @ 185 Sensor flags  0   0   0   0 
DEBUG 2015-12-11T19:09:26.274 src/usodevice.cpp @ 330 Set command 3492 
DEBUG 2015-12-11T19:09:26.274 src/parameters/modbusparameter.cpp @ 334 Set value "0100" 
DEBUG 2015-12-11T19:09:26.274 src/modbusmaster.cpp @ 160 writedw 
DEBUG 2015-12-11T19:09:26.274 src/modbusmaster.cpp @ 143 w_waiter unlock 
DEBUG 2015-12-11T19:09:26.274 src/modbusmaster.cpp @ 145 wdata locked 
DEBUG 2015-12-11T19:09:26.274 src/modbusmaster.cpp @ 149 wdata unlocked 
DEBUG 2015-12-11T19:09:26.274 src/modbusmaster.cpp @ 152 thread wakeup 
 INFO 2015-12-11T19:09:26.284 src/modbusmaster.cpp @ 219 Tx Data :  "33  10  0d  a4  00  01  02  00  01  ef  15  " 
 INFO 2015-12-11T19:09:26.309 src/modbusmaster.cpp @ 231 Rx Data :  "33  10  0d  a4  00  01  46  94  " 
DEBUG 2015-12-11T19:09:27.090 src/pagewidget.cpp @ 203 Start Get periodical parameters ------- 
DEBUG 2015-12-11T19:09:27.091 src/modbusmaster.cpp @ 179 read 
DEBUG 2015-12-11T19:09:27.091 src/modbusmaster.cpp @ 182 waiter unlock 
DEBUG 2015-12-11T19:09:27.091 src/modbusmaster.cpp @ 184 rdata locked 
DEBUG 2015-12-11T19:09:27.091 src/modbusmaster.cpp @ 188 rdata unlocked 
DEBUG 2015-12-11T19:09:27.091 src/modbusmaster.cpp @ 191 thread wakeup 
DEBUG 2015-12-11T19:09:27.091 src/modbusmaster.cpp @ 179 read 
DEBUG 2015-12-11T19:09:27.091 src/modbusmaster.cpp @ 182 waiter unlock 
DEBUG 2015-12-11T19:09:27.091 src/modbusmaster.cpp @ 184 rdata locked 
DEBUG 2015-12-11T19:09:27.091 src/modbusmaster.cpp @ 188 rdata unlocked 
DEBUG 2015-12-11T19:09:27.091 src/modbusmaster.cpp @ 191 thread wakeup 
DEBUG 2015-12-11T19:09:27.091 src/modbusmaster.cpp @ 179 read 
DEBUG 2015-12-11T19:09:27.091 src/modbusmaster.cpp @ 182 waiter unlock 
DEBUG 2015-12-11T19:09:27.091 src/modbusmaster.cpp @ 184 rdata locked 
DEBUG 2015-12-11T19:09:27.091 src/modbusmaster.cpp @ 188 rdata unlocked 
DEBUG 2015-12-11T19:09:27.091 src/modbusmaster.cpp @ 191 thread wakeup 
DEBUG 2015-12-11T19:09:27.091 src/pagewidget.cpp @ 208 End Get periodical parameters ------- 
DEBUG 2015-12-11T19:09:27.095 src/modbusmaster.cpp @ 327 Set slave 51 
 INFO 2015-12-11T19:09:27.095 src/modbusmaster.cpp @ 219 Tx Data :  "33  03  00  18  00  08  c0  19  " 
 INFO 2015-12-11T19:09:27.135 src/modbusmaster.cpp @ 231 Rx Data :  "33  03  10  00  20  00  00  dc  bf  1d  fd  04  00  00  00  00  00  00  00  8b  8d  " 
DEBUG 2015-12-11T19:09:27.145 src/usodevice.cpp @ 406 Read parameter slot known slave  
DEBUG 2015-12-11T19:09:27.145 src/usodevice.cpp @ 409 Read parameter slot, known address  "0x30" 
DEBUG 2015-12-11T19:09:27.155 src/modbusmaster.cpp @ 327 Set slave 51 
 INFO 2015-12-11T19:09:27.155 src/modbusmaster.cpp @ 219 Tx Data :  "33  03  0b  5c  00  0a  03  e9  " 
 INFO 2015-12-11T19:09:27.200 src/modbusmaster.cpp @ 231 Rx Data :  "33  03  14  00  02  04  00  20  00  00  00  00  16  00  00  02  00  00  00  00  00  00  00  87  cb  " 
DEBUG 2015-12-11T19:09:27.210 src/usodevice.cpp @ 406 Read parameter slot known slave  
DEBUG 2015-12-11T19:09:27.210 src/usodevice.cpp @ 409 Read parameter slot, known address  "0x16b8" 
DEBUG 2015-12-11T19:09:27.220 src/modbusmaster.cpp @ 327 Set slave 51 
 INFO 2015-12-11T19:09:27.220 src/modbusmaster.cpp @ 219 Tx Data :  "33  03  01  26  00  08  a0  29  " 
 INFO 2015-12-11T19:09:27.260 src/modbusmaster.cpp @ 231 Rx Data :  "33  03  10  00  00  00  00  00  00  00  00  00  00  00  00  00  00  00  00  d2  e5  " 
DEBUG 2015-12-11T19:09:27.270 src/usodevice.cpp @ 406 Read parameter slot known slave  
DEBUG 2015-12-11T19:09:27.271 src/usodevice.cpp @ 409 Read parameter slot, known address  "0x24c" 
DEBUG 2015-12-11T19:09:27.271 src/usodevice.cpp @ 422 Sensor updte flags emit 
DEBUG 2015-12-11T19:09:27.271 src/pagewidget.cpp @ 180 Update sensor flags 
DEBUG 2015-12-11T19:09:27.271 src/pagewidget.cpp @ 185 Sensor flags  0   0   0   0 
DEBUG 2015-12-11T19:09:27.271 src/usodevice.cpp @ 330 Set command 3492 
DEBUG 2015-12-11T19:09:27.271 src/parameters/modbusparameter.cpp @ 334 Set value "0100" 
DEBUG 2015-12-11T19:09:27.271 src/modbusmaster.cpp @ 160 writedw 
DEBUG 2015-12-11T19:09:27.271 src/modbusmaster.cpp @ 143 w_waiter unlock 
DEBUG 2015-12-11T19:09:27.271 src/modbusmaster.cpp @ 145 wdata locked 
DEBUG 2015-12-11T19:09:27.271 src/modbusmaster.cpp @ 149 wdata unlocked 
DEBUG 2015-12-11T19:09:27.271 src/modbusmaster.cpp @ 152 thread wakeup 
 INFO 2015-12-11T19:09:27.280 src/modbusmaster.cpp @ 219 Tx Data :  "33  10  0d  a4  00  01  02  00  01  ef  15  " 
 INFO 2015-12-11T19:09:27.306 src/modbusmaster.cpp @ 231 Rx Data :  "33  10  0d  a4  00  01  46  94  " 
DEBUG 2015-12-11T19:09:28.091 src/pagewidget.cpp @ 203 Start Get periodical parameters ------- 
DEBUG 2015-12-11T19:09:28.091 src/modbusmaster.cpp @ 179 read 
DEBUG 2015-12-11T19:09:28.091 src/modbusmaster.cpp @ 182 waiter unlock 
DEBUG 2015-12-11T19:09:28.092 src/modbusmaster.cpp @ 184 rdata locked 
DEBUG 2015-12-11T19:09:28.092 src/modbusmaster.cpp @ 188 rdata unlocked 
DEBUG 2015-12-11T19:09:28.092 src/modbusmaster.cpp @ 191 thread wakeup 
DEBUG 2015-12-11T19:09:28.092 src/modbusmaster.cpp @ 179 read 
DEBUG 2015-12-11T19:09:28.092 src/modbusmaster.cpp @ 182 waiter unlock 
DEBUG 2015-12-11T19:09:28.092 src/modbusmaster.cpp @ 184 rdata locked 
DEBUG 2015-12-11T19:09:28.092 src/modbusmaster.cpp @ 188 rdata unlocked 
DEBUG 2015-12-11T19:09:28.092 src/modbusmaster.cpp @ 191 thread wakeup 
DEBUG 2015-12-11T19:09:28.092 src/modbusmaster.cpp @ 179 read 
DEBUG 2015-12-11T19:09:28.092 src/modbusmaster.cpp @ 182 waiter unlock 
DEBUG 2015-12-11T19:09:28.092 src/modbusmaster.cpp @ 184 rdata locked 
DEBUG 2015-12-11T19:09:28.092 src/modbusmaster.cpp @ 188 rdata unlocked 
DEBUG 2015-12-11T19:09:28.092 src/modbusmaster.cpp @ 191 thread wakeup 
DEBUG 2015-12-11T19:09:28.092 src/pagewidget.cpp @ 208 End Get periodical parameters ------- 
DEBUG 2015-12-11T19:09:28.102 src/modbusmaster.cpp @ 327 Set slave 51 
 INFO 2015-12-11T19:09:28.102 src/modbusmaster.cpp @ 219 Tx Data :  "33  03  00  18  00  08  c0  19  " 
 INFO 2015-12-11T19:09:28.142 src/modbusmaster.cpp @ 231 Rx Data :  "33  03  10  00  26  00  00  dc  c0  1d  fd  04  00  00  00  00  00  00  00  97  5a  " 
DEBUG 2015-12-11T19:09:28.152 src/usodevice.cpp @ 406 Read parameter slot known slave  
DEBUG 2015-12-11T19:09:28.152 src/usodevice.cpp @ 409 Read parameter slot, known address  "0x30" 
DEBUG 2015-12-11T19:09:28.162 src/modbusmaster.cpp @ 327 Set slave 51 
 INFO 2015-12-11T19:09:28.162 src/modbusmaster.cpp @ 219 Tx Data :  "33  03  0b  5c  00  0a  03  e9  " 
 INFO 2015-12-11T19:09:28.206 src/modbusmaster.cpp @ 231 Rx Data :  "33  03  14  00  02  04  00  20  00  00  00  00  16  00  00  02  00  00  00  00  00  00  00  87  cb  " 
DEBUG 2015-12-11T19:09:28.217 src/usodevice.cpp @ 406 Read parameter slot known slave  
DEBUG 2015-12-11T19:09:28.217 src/usodevice.cpp @ 409 Read parameter slot, known address  "0x16b8" 
DEBUG 2015-12-11T19:09:28.227 src/modbusmaster.cpp @ 327 Set slave 51 
 INFO 2015-12-11T19:09:28.227 src/modbusmaster.cpp @ 219 Tx Data :  "33  03  01  26  00  08  a0  29  " 
 INFO 2015-12-11T19:09:28.267 src/modbusmaster.cpp @ 231 Rx Data :  "33  03  10  00  00  00  00  00  00  00  00  00  00  00  00  00  00  00  00  d2  e5  " 
DEBUG 2015-12-11T19:09:28.277 src/usodevice.cpp @ 406 Read parameter slot known slave  
DEBUG 2015-12-11T19:09:28.277 src/usodevice.cpp @ 409 Read parameter slot, known address  "0x24c" 
DEBUG 2015-12-11T19:09:28.277 src/usodevice.cpp @ 422 Sensor updte flags emit 
DEBUG 2015-12-11T19:09:28.277 src/pagewidget.cpp @ 180 Update sensor flags 
DEBUG 2015-12-11T19:09:28.277 src/pagewidget.cpp @ 185 Sensor flags  0   0   0   0 
DEBUG 2015-12-11T19:09:28.277 src/usodevice.cpp @ 330 Set command 3492 
DEBUG 2015-12-11T19:09:28.277 src/parameters/modbusparameter.cpp @ 334 Set value "0100" 
DEBUG 2015-12-11T19:09:28.277 src/modbusmaster.cpp @ 160 writedw 
DEBUG 2015-12-11T19:09:28.278 src/modbusmaster.cpp @ 143 w_waiter unlock 
DEBUG 2015-12-11T19:09:28.278 src/modbusmaster.cpp @ 145 wdata locked 
DEBUG 2015-12-11T19:09:28.278 src/modbusmaster.cpp @ 149 wdata unlocked 
DEBUG 2015-12-11T19:09:28.278 src/modbusmaster.cpp @ 152 thread wakeup 
 INFO 2015-12-11T19:09:28.287 src/modbusmaster.cpp @ 219 Tx Data :  "33  10  0d  a4  00  01  02  00  01  ef  15  " 
 INFO 2015-12-11T19:09:28.313 src/modbusmaster.cpp @ 231 Rx Data :  "33  10  0d  a4  00  01  46  94  " 
DEBUG 2015-12-11T19:09:29.091 src/pagewidget.cpp @ 203 Start Get periodical parameters ------- 
DEBUG 2015-12-11T19:09:29.091 src/modbusmaster.cpp @ 179 read 
DEBUG 2015-12-11T19:09:29.091 src/modbusmaster.cpp @ 182 waiter unlock 
DEBUG 2015-12-11T19:09:29.091 src/modbusmaster.cpp @ 184 rdata locked 
DEBUG 2015-12-11T19:09:29.091 src/modbusmaster.cpp @ 188 rdata unlocked 
DEBUG 2015-12-11T19:09:29.091 src/modbusmaster.cpp @ 191 thread wakeup 
DEBUG 2015-12-11T19:09:29.091 src/modbusmaster.cpp @ 179 read 
DEBUG 2015-12-11T19:09:29.091 src/modbusmaster.cpp @ 182 waiter unlock 
DEBUG 2015-12-11T19:09:29.091 src/modbusmaster.cpp @ 184 rdata locked 
DEBUG 2015-12-11T19:09:29.091 src/modbusmaster.cpp @ 188 rdata unlocked 
DEBUG 2015-12-11T19:09:29.091 src/modbusmaster.cpp @ 191 thread wakeup 
DEBUG 2015-12-11T19:09:29.091 src/modbusmaster.cpp @ 179 read 
DEBUG 2015-12-11T19:09:29.091 src/modbusmaster.cpp @ 182 waiter unlock 
DEBUG 2015-12-11T19:09:29.091 src/modbusmaster.cpp @ 184 rdata locked 
DEBUG 2015-12-11T19:09:29.091 src/modbusmaster.cpp @ 188 rdata unlocked 
DEBUG 2015-12-11T19:09:29.091 src/modbusmaster.cpp @ 191 thread wakeup 
DEBUG 2015-12-11T19:09:29.091 src/pagewidget.cpp @ 208 End Get periodical parameters ------- 
DEBUG 2015-12-11T19:09:29.098 src/modbusmaster.cpp @ 327 Set slave 51 
 INFO 2015-12-11T19:09:29.098 src/modbusmaster.cpp @ 219 Tx Data :  "33  03  00  18  00  08  c0  19  " 
 INFO 2015-12-11T19:09:29.138 src/modbusmaster.cpp @ 231 Rx Data :  "33  03  10  00  23  00  00  dc  c1  1d  fd  04  00  00  00  00  00  00  00  56  a5  " 
DEBUG 2015-12-11T19:09:29.149 src/usodevice.cpp @ 406 Read parameter slot known slave  
DEBUG 2015-12-11T19:09:29.149 src/usodevice.cpp @ 409 Read parameter slot, known address  "0x30" 
DEBUG 2015-12-11T19:09:29.159 src/modbusmaster.cpp @ 327 Set slave 51 
 INFO 2015-12-11T19:09:29.159 src/modbusmaster.cpp @ 219 Tx Data :  "33  03  0b  5c  00  0a  03  e9  " 
 INFO 2015-12-11T19:09:29.203 src/modbusmaster.cpp @ 231 Rx Data :  "33  03  14  00  02  04  00  20  00  00  00  00  16  00  00  02  20  00  00  00  00  00  00  a6  09  " 
DEBUG 2015-12-11T19:09:29.213 src/usodevice.cpp @ 406 Read parameter slot known slave  
DEBUG 2015-12-11T19:09:29.213 src/usodevice.cpp @ 409 Read parameter slot, known address  "0x16b8" 
DEBUG 2015-12-11T19:09:29.223 src/modbusmaster.cpp @ 327 Set slave 51 
 INFO 2015-12-11T19:09:29.223 src/modbusmaster.cpp @ 219 Tx Data :  "33  03  01  26  00  08  a0  29  " 
 INFO 2015-12-11T19:09:29.263 src/modbusmaster.cpp @ 231 Rx Data :  "33  03  10  00  00  00  00  00  00  00  00  00  00  00  00  00  00  00  00  d2  e5  " 
DEBUG 2015-12-11T19:09:29.273 src/usodevice.cpp @ 406 Read parameter slot known slave  
DEBUG 2015-12-11T19:09:29.274 src/usodevice.cpp @ 409 Read parameter slot, known address  "0x24c" 
DEBUG 2015-12-11T19:09:29.274 src/usodevice.cpp @ 422 Sensor updte flags emit 
DEBUG 2015-12-11T19:09:29.274 src/pagewidget.cpp @ 180 Update sensor flags 
DEBUG 2015-12-11T19:09:29.274 src/pagewidget.cpp @ 185 Sensor flags  0   0   0   0 
DEBUG 2015-12-11T19:09:29.274 src/usodevice.cpp @ 330 Set command 3492 
DEBUG 2015-12-11T19:09:29.274 src/parameters/modbusparameter.cpp @ 334 Set value "0100" 
DEBUG 2015-12-11T19:09:29.274 src/modbusmaster.cpp @ 160 writedw 
DEBUG 2015-12-11T19:09:29.274 src/modbusmaster.cpp @ 143 w_waiter unlock 
DEBUG 2015-12-11T19:09:29.274 src/modbusmaster.cpp @ 145 wdata locked 
DEBUG 2015-12-11T19:09:29.274 src/modbusmaster.cpp @ 149 wdata unlocked 
DEBUG 2015-12-11T19:09:29.274 src/modbusmaster.cpp @ 152 thread wakeup 
 INFO 2015-12-11T19:09:29.284 src/modbusmaster.cpp @ 219 Tx Data :  "33  10  0d  a4  00  01  02  00  01  ef  15  " 
 INFO 2015-12-11T19:09:29.309 src/modbusmaster.cpp @ 231 Rx Data :  "33  10  0d  a4  00  01  46  94  " 
DEBUG 2015-12-11T19:09:30.091 src/pagewidget.cpp @ 203 Start Get periodical parameters ------- 
DEBUG 2015-12-11T19:09:30.091 src/modbusmaster.cpp @ 179 read 
DEBUG 2015-12-11T19:09:30.091 src/modbusmaster.cpp @ 182 waiter unlock 
DEBUG 2015-12-11T19:09:30.091 src/modbusmaster.cpp @ 184 rdata locked 
DEBUG 2015-12-11T19:09:30.091 src/modbusmaster.cpp @ 188 rdata unlocked 
DEBUG 2015-12-11T19:09:30.091 src/modbusmaster.cpp @ 191 thread wakeup 
DEBUG 2015-12-11T19:09:30.091 src/modbusmaster.cpp @ 179 read 
DEBUG 2015-12-11T19:09:30.091 src/modbusmaster.cpp @ 182 waiter unlock 
DEBUG 2015-12-11T19:09:30.091 src/modbusmaster.cpp @ 184 rdata locked 
DEBUG 2015-12-11T19:09:30.091 src/modbusmaster.cpp @ 188 rdata unlocked 
DEBUG 2015-12-11T19:09:30.091 src/modbusmaster.cpp @ 191 thread wakeup 
DEBUG 2015-12-11T19:09:30.091 src/modbusmaster.cpp @ 179 read 
DEBUG 2015-12-11T19:09:30.091 src/modbusmaster.cpp @ 182 waiter unlock 
DEBUG 2015-12-11T19:09:30.091 src/modbusmaster.cpp @ 184 rdata locked 
DEBUG 2015-12-11T19:09:30.091 src/modbusmaster.cpp @ 188 rdata unlocked 
DEBUG 2015-12-11T19:09:30.091 src/modbusmaster.cpp @ 191 thread wakeup 
DEBUG 2015-12-11T19:09:30.091 src/pagewidget.cpp @ 208 End Get periodical parameters ------- 
DEBUG 2015-12-11T19:09:30.095 src/modbusmaster.cpp @ 327 Set slave 51 
 INFO 2015-12-11T19:09:30.095 src/modbusmaster.cpp @ 219 Tx Data :  "33  03  00  18  00  08  c0  19  " 
 INFO 2015-12-11T19:09:30.135 src/modbusmaster.cpp @ 231 Rx Data :  "33  03  10  00  1f  00  00  dc  c2  1d  fd  04  00  00  00  00  00  00  00  65  f0  " 
DEBUG 2015-12-11T19:09:30.145 src/usodevice.cpp @ 406 Read parameter slot known slave  
DEBUG 2015-12-11T19:09:30.145 src/usodevice.cpp @ 409 Read parameter slot, known address  "0x30" 
DEBUG 2015-12-11T19:09:30.155 src/modbusmaster.cpp @ 327 Set slave 51 
 INFO 2015-12-11T19:09:30.155 src/modbusmaster.cpp @ 219 Tx Data :  "33  03  0b  5c  00  0a  03  e9  " 
 INFO 2015-12-11T19:09:30.199 src/modbusmaster.cpp @ 231 Rx Data :  "33  03  14  00  02  04  00  20  00  00  00  00  16  00  00  02  20  00  00  00  00  00  00  a6  09  " 
DEBUG 2015-12-11T19:09:30.209 src/usodevice.cpp @ 406 Read parameter slot known slave  
DEBUG 2015-12-11T19:09:30.210 src/usodevice.cpp @ 409 Read parameter slot, known address  "0x16b8" 
DEBUG 2015-12-11T19:09:30.219 src/modbusmaster.cpp @ 327 Set slave 51 
 INFO 2015-12-11T19:09:30.220 src/modbusmaster.cpp @ 219 Tx Data :  "33  03  01  26  00  08  a0  29  " 
 INFO 2015-12-11T19:09:30.260 src/modbusmaster.cpp @ 231 Rx Data :  "33  03  10  00  20  00  00  00  00  00  00  00  00  00  00  00  00  00  00  f2  fd  " 
DEBUG 2015-12-11T19:09:30.270 src/usodevice.cpp @ 406 Read parameter slot known slave  
DEBUG 2015-12-11T19:09:30.270 src/usodevice.cpp @ 409 Read parameter slot, known address  "0x24c" 
DEBUG 2015-12-11T19:09:30.270 src/usodevice.cpp @ 422 Sensor updte flags emit 
DEBUG 2015-12-11T19:09:30.270 src/pagewidget.cpp @ 180 Update sensor flags 
DEBUG 2015-12-11T19:09:30.270 src/pagewidget.cpp @ 185 Sensor flags  32   0   0   0 
DEBUG 2015-12-11T19:09:30.270 src/modbusmaster.cpp @ 179 read 
DEBUG 2015-12-11T19:09:30.270 src/modbusmaster.cpp @ 182 waiter unlock 
DEBUG 2015-12-11T19:09:30.270 src/modbusmaster.cpp @ 184 rdata locked 
DEBUG 2015-12-11T19:09:30.270 src/modbusmaster.cpp @ 188 rdata unlocked 
DEBUG 2015-12-11T19:09:30.270 src/modbusmaster.cpp @ 191 thread wakeup 
DEBUG 2015-12-11T19:09:30.270 src/usodevice.cpp @ 330 Set command 3492 
DEBUG 2015-12-11T19:09:30.270 src/parameters/modbusparameter.cpp @ 334 Set value "0100" 
DEBUG 2015-12-11T19:09:30.271 src/modbusmaster.cpp @ 160 writedw 
DEBUG 2015-12-11T19:09:30.271 src/modbusmaster.cpp @ 143 w_waiter unlock 
DEBUG 2015-12-11T19:09:30.271 src/modbusmaster.cpp @ 145 wdata locked 
DEBUG 2015-12-11T19:09:30.271 src/modbusmaster.cpp @ 149 wdata unlocked 
DEBUG 2015-12-11T19:09:30.271 src/modbusmaster.cpp @ 152 thread wakeup 
 INFO 2015-12-11T19:09:30.280 src/modbusmaster.cpp @ 219 Tx Data :  "33  10  0d  a4  00  01  02  00  01  ef  15  " 
 INFO 2015-12-11T19:09:30.305 src/modbusmaster.cpp @ 231 Rx Data :  "33  10  0d  a4  00  01  46  94  " 
DEBUG 2015-12-11T19:09:30.316 src/modbusmaster.cpp @ 327 Set slave 51 
 INFO 2015-12-11T19:09:30.316 src/modbusmaster.cpp @ 219 Tx Data :  "33  03  01  b0  00  1a  c0  08  " 
 INFO 2015-12-11T19:09:30.393 src/modbusmaster.cpp @ 231 Rx Data :  "33  03  34  00  00  00  00  00  43  00  00  00  07  00  05  02  58  00  00  dc  c0  1d  fd  23  18  00  08  88  17  00  93  8d  7f  00  f7  0e  0c  00  00  00  00  00  00  00  00  00  00  00  00  00  00  00  00  00  00  e5  ce  " 
DEBUG 2015-12-11T19:09:30.404 src/usodevice.cpp @ 406 Read parameter slot known slave  
DEBUG 2015-12-11T19:09:30.404 src/usodevice.cpp @ 409 Read parameter slot, known address  "0x360" 
DEBUG 2015-12-11T19:09:30.404 src/usodevice.cpp @ 419 Sensor data emit 
DEBUG 2015-12-11T19:09:30.404 src/pagewidget.cpp @ 150 Update sensor data 
DEBUG 2015-12-11T19:09:30.404 src/pagewidget.cpp @ 154 Sensor counter 67 
 INFO 2015-12-11T19:09:30.404 src/rawdatamodel.cpp @ 17 Raw Data Model Line =  "5:67 11-12-2015 19:13:04 [ 00082318:00938817:00f78d7f:00000e0c ] "  , No of lines =  66 
DEBUG 2015-12-11T19:09:31.091 src/pagewidget.cpp @ 203 Start Get periodical parameters ------- 
DEBUG 2015-12-11T19:09:31.091 src/modbusmaster.cpp @ 179 read 
DEBUG 2015-12-11T19:09:31.091 src/modbusmaster.cpp @ 182 waiter unlock 
DEBUG 2015-12-11T19:09:31.091 src/modbusmaster.cpp @ 184 rdata locked 
DEBUG 2015-12-11T19:09:31.091 src/modbusmaster.cpp @ 188 rdata unlocked 
DEBUG 2015-12-11T19:09:31.091 src/modbusmaster.cpp @ 191 thread wakeup 
DEBUG 2015-12-11T19:09:31.091 src/modbusmaster.cpp @ 179 read 
DEBUG 2015-12-11T19:09:31.091 src/modbusmaster.cpp @ 182 waiter unlock 
DEBUG 2015-12-11T19:09:31.091 src/modbusmaster.cpp @ 184 rdata locked 
DEBUG 2015-12-11T19:09:31.091 src/modbusmaster.cpp @ 188 rdata unlocked 
DEBUG 2015-12-11T19:09:31.091 src/modbusmaster.cpp @ 191 thread wakeup 
DEBUG 2015-12-11T19:09:31.091 src/modbusmaster.cpp @ 179 read 
DEBUG 2015-12-11T19:09:31.091 src/modbusmaster.cpp @ 182 waiter unlock 
DEBUG 2015-12-11T19:09:31.091 src/modbusmaster.cpp @ 184 rdata locked 
DEBUG 2015-12-11T19:09:31.091 src/modbusmaster.cpp @ 188 rdata unlocked 
DEBUG 2015-12-11T19:09:31.091 src/modbusmaster.cpp @ 191 thread wakeup 
DEBUG 2015-12-11T19:09:31.091 src/pagewidget.cpp @ 208 End Get periodical parameters ------- 
DEBUG 2015-12-11T19:09:31.098 src/modbusmaster.cpp @ 327 Set slave 51 
 INFO 2015-12-11T19:09:31.098 src/modbusmaster.cpp @ 219 Tx Data :  "33  03  00  18  00  08  c0  19  " 
 INFO 2015-12-11T19:09:31.138 src/modbusmaster.cpp @ 231 Rx Data :  "33  03  10  00  23  00  00  dc  c3  1d  fd  04  00  00  00  00  00  00  00  5d  1d  " 
DEBUG 2015-12-11T19:09:31.149 src/usodevice.cpp @ 406 Read parameter slot known slave  
DEBUG 2015-12-11T19:09:31.149 src/usodevice.cpp @ 409 Read parameter slot, known address  "0x30" 
DEBUG 2015-12-11T19:09:31.159 src/modbusmaster.cpp @ 327 Set slave 51 
 INFO 2015-12-11T19:09:31.159 src/modbusmaster.cpp @ 219 Tx Data :  "33  03  0b  5c  00  0a  03  e9  " 
 INFO 2015-12-11T19:09:31.203 src/modbusmaster.cpp @ 231 Rx Data :  "33  03  14  00  02  04  00  20  00  00  00  00  16  00  00  02  20  00  00  00  00  00  00  a6  09  " 
DEBUG 2015-12-11T19:09:31.213 src/usodevice.cpp @ 406 Read parameter slot known slave  
DEBUG 2015-12-11T19:09:31.213 src/usodevice.cpp @ 409 Read parameter slot, known address  "0x16b8" 
DEBUG 2015-12-11T19:09:31.223 src/modbusmaster.cpp @ 327 Set slave 51 
 INFO 2015-12-11T19:09:31.223 src/modbusmaster.cpp @ 219 Tx Data :  "33  03  01  26  00  08  a0  29  " 
 INFO 2015-12-11T19:09:31.264 src/modbusmaster.cpp @ 231 Rx Data :  "33  03  10  00  00  00  00  00  00  00  00  00  00  00  00  00  00  00  00  d2  e5  " 
DEBUG 2015-12-11T19:09:31.274 src/usodevice.cpp @ 406 Read parameter slot known slave  
DEBUG 2015-12-11T19:09:31.274 src/usodevice.cpp @ 409 Read parameter slot, known address  "0x24c" 
DEBUG 2015-12-11T19:09:31.274 src/usodevice.cpp @ 422 Sensor updte flags emit 
DEBUG 2015-12-11T19:09:31.274 src/pagewidget.cpp @ 180 Update sensor flags 
DEBUG 2015-12-11T19:09:31.274 src/pagewidget.cpp @ 185 Sensor flags  0   0   0   0 
